…
```
## Warning: package 'dygraphs' was built under R version 4.0.3
```

```r
x1 <- "KR"
end <- today()-days(3)
start <- end - years(5)

x1_prices <- tq_get(x1, get = "stock.prices", from = start, to = end)
x1_prices
```

```
## # A tibble: 1,259 x 8
##    symbol date        open  high   low close   volume adjusted
##    <chr>  <date>     <dbl> <dbl> <dbl> <dbl>    <dbl>    <dbl>
##  1 KR     2015-11-02  37.8  38.2  37.5  38.2  6024100     34.8
##  2 KR     2015-11-03  38.0  38.2  37.7  37.8  4939300     34.4
##  3 KR     2015-11-04  37.9  38.0  36.9  37.0  6064500     33.8
##  4 KR     2015-11-05  37.2  37.2  36.7  37.1  7525200     33.8
##  5 KR     2015-11-06  37.0  37.6  36.9  37.6  9655000     34.3
##  6 KR     2015-11-09  37.3  37.5  36.9  37.2  6826800     33.9
##  7 KR     2015-11-10  37.2  37.4  37.0  37.3  4597700     34.1
##  8 KR     2015-11-11  37.4  37.5  36.8  37.0  7531700     33.9
##  9 KR     2015-11-12  37.0  37.2  36.5  36.5 23727000     33.4
## 10 KR     2015-11-13  36.5  36.7  36    36.0 10345200     33.0
## # ... with 1,249 more rows
```
…
##  [ ] Imagine that you invested $10,000 in Kroger about two years ago on April 5th. Make a graph with dygraph that shows performance using dyRebased() to $10,000.
##  [ ]	Annotate the graphic with a note of the reason at two or more time points, or intervals, where the price had significant shifts.


```r
x1 <- "KR"
end <- today()-days(3)
start <- end - years(2)

x1_prices2 <- tq_get(x1, get = "stock.prices", from = start, to = end)
x1_prices2
```

```
## # A tibble: 502 x 8
##    symbol date        open  high   low close   volume adjusted
##    <chr>  <date>     <dbl> <dbl> <dbl> <dbl>    <dbl>    <dbl>
##  1 KR     2018-11-02  29.2  30.5  29.2  30.2 11641800     28.9
##  2 KR     2018-11-05  30.0  30.7  30.0  30.6  7014600     29.3
##  3 KR     2018-11-06  30.6  30.9  30.4  30.8  6082900     29.5
##  4 KR     2018-11-07  31    31.8  30.9  31.3  7791500     30.0
##  5 KR     2018-11-08  31.3  31.6  31.1  31.4  5644000     30.0
##  6 KR     2018-11-09  31.3  31.7  31.0  31.4  6935400     30.1
##  7 KR     2018-11-12  31.2  32.0  31.1  31.4  5927800     30.0
##  8 KR     2018-11-13  31.3  31.6  31.2  31.4  6806100     30.1
##  9 KR     2018-11-14  31    31.3  30.0  30.3  8510700     29.1
## 10 KR     2018-11-15  30.1  30.3  29.8  30.0  5861600     28.9
## # ... with 492 more rows
```
…
