…
```r
flts[which(flts$arr_delay %in% outliers),] # First you need find in which rows the outliers are
```

```
## # A tibble: 27,880 x 19
##     year month   day dep_time sched_dep_time dep_delay arr_time sched_arr_time
##    <int> <int> <int>    <int>          <int>     <dbl>    <int>          <int>
##  1  2013     1     1      811            630       101     1047            830
##  2  2013     1     1      848           1835       853     1001           1950
##  3  2013     1     1      957            733       144     1056            853
##  4  2013     1     1     1114            900       134     1447           1222
##  5  2013     1     1     1120            944        96     1331           1213
##  6  2013     1     1     1255           1200        55     1451           1330
##  7  2013     1     1     1301           1150        71     1518           1345
##  8  2013     1     1     1337           1220        77     1649           1531
##  9  2013     1     1     1342           1320        22     1617           1504
## 10  2013     1     1     1400           1250        70     1645           1502
## # ... with 27,870 more rows, and 11 more variables: arr_delay <dbl>,
## #   carrier <chr>, flight <int>, tailnum <chr>, origin <chr>, dest <chr>,
## #   air_time <dbl>, distance <dbl>, hour <dbl>, minute <dbl>, time_hour <dttm>
```
…
```r
flts[which(flts$dep_delay %in% outliers),] # First you need find in which rows the outliers are
```

```
## # A tibble: 43,216 x 19
##     year month   day dep_time sched_dep_time dep_delay arr_time sched_arr_time
##    <int> <int> <int>    <int>          <int>     <dbl>    <int>          <int>
##  1  2013     1     1      732            645        47     1011            941
##  2  2013     1     1      749            710        39      939            850
##  3  2013     1     1      811            630       101     1047            830
##  4  2013     1     1      826            715        71     1136           1045
##  5  2013     1     1      848           1835       853     1001           1950
##  6  2013     1     1      903            820        43     1045            955
##  7  2013     1     1      909            810        59     1331           1315
##  8  2013     1     1      957            733       144     1056            853
##  9  2013     1     1     1114            900       134     1447           1222
## 10  2013     1     1     1120            944        96     1331           1213
## # ... with 43,206 more rows, and 11 more variables: arr_delay <dbl>,
## #   carrier <chr>, flight <int>, tailnum <chr>, origin <chr>, dest <chr>,
## #   air_time <dbl>, distance <dbl>, hour <dbl>, minute <dbl>, time_hour <dttm>
```
…
```r
flts[which(flts$arr_delay %in% outliers),] # First you need find in which rows the outliers are
```

```
## # A tibble: 27,880 x 19
##     year month   day dep_time sched_dep_time dep_delay arr_time sched_arr_time
##    <int> <int> <int>    <int>          <int>     <dbl>    <int>          <int>
##  1  2013     1     1      811            630       101     1047            830
##  2  2013     1     1      848           1835       853     1001           1950
##  3  2013     1     1      957            733       144     1056            853
##  4  2013     1     1     1114            900       134     1447           1222
##  5  2013     1     1     1120            944        96     1331           1213
##  6  2013     1     1     1255           1200        55     1451           1330
##  7  2013     1     1     1301           1150        71     1518           1345
##  8  2013     1     1     1337           1220        77     1649           1531
##  9  2013     1     1     1342           1320        22     1617           1504
## 10  2013     1     1     1400           1250        70     1645           1502
## # ... with 27,870 more rows, and 11 more variables: arr_delay <dbl>,
## #   carrier <chr>, flight <int>, tailnum <chr>, origin <chr>, dest <chr>,
## #   air_time <dbl>, distance <dbl>, hour <dbl>, minute <dbl>, time_hour <dttm>
```
…
```r
fodlbyarpt <- group_by(fodl, origin)  
fodlbyarpt
```

```
## # A tibble: 45,161 x 19
## # Groups:   origin [3]
##     year month   day dep_time sched_dep_time dep_delay arr_time sched_arr_time
##    <int> <int> <int>    <int>          <int>     <dbl>    <int>          <int>
##  1  2013     1     1      554            600        -6      812            837
##  2  2013     1     1      602            610        -8      812            820
##  3  2013     1     1      606            610        -4      837            845
##  4  2013     1     1      615            615         0      833            842
##  5  2013     1     1      653            700        -7      936           1009
##  6  2013     1     1      655            655         0     1021           1030
##  7  2013     1     1      655            700        -5     1037           1045
##  8  2013     1     1      655            700        -5     1002           1020
##  9  2013     1     1      657            700        -3      959           1013
## 10  2013     1     1      658            700        -2      944            939
## # ... with 45,151 more rows, and 11 more variables: arr_delay <dbl>,
## #   carrier <chr>, flight <int>, tailnum <chr>, origin <chr>, dest <chr>,
## #   air_time <dbl>, distance <dbl>, hour <dbl>, minute <dbl>, time_hour <dttm>
```
…
```r
flts[which(flts$arr_delay %in% outliers),] # First you need find in which rows the outliers are
```

```
## # A tibble: 27,880 x 19
##     year month   day dep_time sched_dep_time dep_delay arr_time sched_arr_time
##    <int> <int> <int>    <int>          <int>     <dbl>    <int>          <int>
##  1  2013     1     1      811            630       101     1047            830
##  2  2013     1     1      848           1835       853     1001           1950
##  3  2013     1     1      957            733       144     1056            853
##  4  2013     1     1     1114            900       134     1447           1222
##  5  2013     1     1     1120            944        96     1331           1213
##  6  2013     1     1     1255           1200        55     1451           1330
##  7  2013     1     1     1301           1150        71     1518           1345
##  8  2013     1     1     1337           1220        77     1649           1531
##  9  2013     1     1     1342           1320        22     1617           1504
## 10  2013     1     1     1400           1250        70     1645           1502
## # ... with 27,870 more rows, and 11 more variables: arr_delay <dbl>,
## #   carrier <chr>, flight <int>, tailnum <chr>, origin <chr>, dest <chr>,
## #   air_time <dbl>, distance <dbl>, hour <dbl>, minute <dbl>, time_hour <dttm>
```
…
```r
fobydest <- group_by(fltsout, dest)  
fobydest
```

```
## # A tibble: 308,896 x 19
## # Groups:   dest [105]
##     year month   day dep_time sched_dep_time dep_delay arr_time sched_arr_time
##    <int> <int> <int>    <int>          <int>     <dbl>    <int>          <int>
##  1  2013     1     1      517            515         2      830            819
##  2  2013     1     1      533            529         4      850            830
##  3  2013     1     1      542            540         2      923            850
##  4  2013     1     1      544            545        -1     1004           1022
##  5  2013     1     1      554            600        -6      812            837
##  6  2013     1     1      554            558        -4      740            728
##  7  2013     1     1      555            600        -5      913            854
##  8  2013     1     1      557            600        -3      709            723
##  9  2013     1     1      557            600        -3      838            846
## 10  2013     1     1      558            600        -2      753            745
## # ... with 308,886 more rows, and 11 more variables: arr_delay <dbl>,
## #   carrier <chr>, flight <int>, tailnum <chr>, origin <chr>, dest <chr>,
## #   air_time <dbl>, distance <dbl>, hour <dbl>, minute <dbl>, time_hour <dttm>
```

```r
fobdgrpd <- summarise(fobydest, meanarrdelay = mean(arr_delay, na.rm = TRUE)) # Produce the mean for each airport
```

```
## `summarise()` ungrouping output (override with `.groups` argument)
```

```r
fobdgrpd
```

```
## # A tibble: 105 x 2
##    dest  meanarrdelay
##    <chr>        <dbl>
##  1 ABQ         -6.24 
##  2 ACK         -0.171
##  3 ALB         -2.08 
##  4 ANC         -2.5  
##  5 ATL          0.264
##  6 AUS         -4.98 
##  7 AVL          0.362
##  8 BDL         -4.31 
##  9 BGR         -6.16 
## 10 BHM         -4.63 
## # ... with 95 more rows
```
…
