Task 7: Developing a Graphic
…
flts[which(flts$arr_delay %in% outliers),] # First you need find in which rows the outliers are

## # A tibble: 27,880 x 19
##     year month   day dep_time sched_dep_time dep_delay arr_time sched_arr_time
##    <int> <int> <int>    <int>          <int>     <dbl>    <int>          <int>
##  1  2013     1     1      811            630       101     1047            830
##  2  2013     1     1      848           1835       853     1001           1950
##  3  2013     1     1      957            733       144     1056            853
##  4  2013     1     1     1114            900       134     1447           1222
##  5  2013     1     1     1120            944        96     1331           1213
##  6  2013     1     1     1255           1200        55     1451           1330
##  7  2013     1     1     1301           1150        71     1518           1345
##  8  2013     1     1     1337           1220        77     1649           1531
##  9  2013     1     1     1342           1320        22     1617           1504
## 10  2013     1     1     1400           1250        70     1645           1502
## # ... with 27,870 more rows, and 11 more variables: arr_delay <dbl>,
## #   carrier <chr>, flight <int>, tailnum <chr>, origin <chr>, dest <chr>,
## #   air_time <dbl>, distance <dbl>, hour <dbl>, minute <dbl>, time_hour <dttm>
…
##           year          month            day       dep_time sched_dep_time 
##           TRUE           TRUE           TRUE           TRUE           TRUE 
##      dep_delay       arr_time sched_arr_time      arr_delay        carrier 
##           TRUE           TRUE           TRUE           TRUE          FALSE 
##         flight        tailnum         origin           dest       air_time 
##           TRUE          FALSE          FALSE          FALSE           TRUE 
##       distance           hour         minute      time_hour 
##           TRUE           TRUE           TRUE          FALSE

data_num <- flts[ , num_cols]                        # Subset numeric columns of data
data_num   

## # A tibble: 336,776 x 14
##     year month   day dep_time sched_dep_time dep_delay arr_time sched_arr_time
##    <int> <int> <int>    <int>          <int>     <dbl>    <int>          <int>
##  1  2013     1     1      517            515         2      830            819
##  2  2013     1     1      533            529         4      850            830
##  3  2013     1     1      542            540         2      923            850
##  4  2013     1     1      544            545        -1     1004           1022
##  5  2013     1     1      554            600        -6      812            837
##  6  2013     1     1      554            558        -4      740            728
##  7  2013     1     1      555            600        -5      913            854
##  8  2013     1     1      557            600        -3      709            723
##  9  2013     1     1      557            600        -3      838            846
## 10  2013     1     1      558            600        -2      753            745
## # ... with 336,766 more rows, and 6 more variables: arr_delay <dbl>,
## #   flight <int>, air_time <dbl>, distance <dbl>, hour <dbl>, minute <dbl>
…
