…
My_stockVolume <- bind_rows(x1_prices, x2_prices, x3_prices, x4_prices, x5_prices, x6_prices, x7_prices, x8_prices, x9_prices, x10_prices, x11_prices)
AllMy_stockAdjVol <-  select(My_stockVolume, symbol, date, adjusted, volume)
AllMy_stockAdjVol 
```

```
## # A tibble: 5,260 x 4
##    symbol date       adjusted  volume
##    <chr>  <date>        <dbl>   <dbl>
##  1 CXW    2018-11-05     20.0  819100
##  2 CXW    2018-11-06     18.6 1612600
##  3 CXW    2018-11-07     18.8  775000
##  4 CXW    2018-11-08     19.0  524200
##  5 CXW    2018-11-09     18.7  584500
##  6 CXW    2018-11-12     19.4  734000
##  7 CXW    2018-11-13     19.3  297600
##  8 CXW    2018-11-14     18.9  636900
##  9 CXW    2018-11-15     18.6  576000
## 10 CXW    2018-11-16     18.3 1206900
## # ... with 5,250 more rows
```
…
#Particular_stock <- filter(AllMy_stockAdjVol , symbol == "XYZ")
#Particular_stock$volstd <- scale(Particular_stock$volume)
#Particular_stock$adjstd <- scale(Particular_stock$adjusted)
#Particular_stock




adjvolCXW <- filter(AllMy_stockAdjVol , symbol == "CXW")
adjvolCXW 
```

```
## # A tibble: 502 x 4
##    symbol date       adjusted  volume
##    <chr>  <date>        <dbl>   <dbl>
##  1 CXW    2018-11-05     20.0  819100
##  2 CXW    2018-11-06     18.6 1612600
##  3 CXW    2018-11-07     18.8  775000
##  4 CXW    2018-11-08     19.0  524200
##  5 CXW    2018-11-09     18.7  584500
##  6 CXW    2018-11-12     19.4  734000
##  7 CXW    2018-11-13     19.3  297600
##  8 CXW    2018-11-14     18.9  636900
##  9 CXW    2018-11-15     18.6  576000
## 10 CXW    2018-11-16     18.3 1206900
## # ... with 492 more rows
```

```r
adjvolCXW$volstd <- scale(adjvolCXW$volume)
adjvolCXW$adjstd <- scale(adjvolCXW$adjusted)
adjvolCXW 
```

```
## # A tibble: 502 x 6
##    symbol date       adjusted  volume volstd[,1] adjstd[,1]
##    <chr>  <date>        <dbl>   <dbl>      <dbl>      <dbl>
##  1 CXW    2018-11-05     20.0  819100    -0.219        1.46
##  2 CXW    2018-11-06     18.6 1612600     0.332        1.10
##  3 CXW    2018-11-07     18.8  775000    -0.250        1.15
##  4 CXW    2018-11-08     19.0  524200    -0.424        1.19
##  5 CXW    2018-11-09     18.7  584500    -0.382        1.12
##  6 CXW    2018-11-12     19.4  734000    -0.279        1.31
##  7 CXW    2018-11-13     19.3  297600    -0.582        1.27
##  8 CXW    2018-11-14     18.9  636900    -0.346        1.16
##  9 CXW    2018-11-15     18.6  576000    -0.388        1.09
## 10 CXW    2018-11-16     18.3 1206900     0.0498       1.02
## # ... with 492 more rows
```
…
```r
adjvolF <- filter(AllMy_stockAdjVol, symbol == "F")
adjvolF 
```

```
## # A tibble: 502 x 4
##    symbol date       adjusted   volume
##    <chr>  <date>        <dbl>    <dbl>
##  1 F      2018-11-05     8.79 41274300
##  2 F      2018-11-06     8.80 40928600
##  3 F      2018-11-07     8.85 37347400
##  4 F      2018-11-08     8.72 55810100
##  5 F      2018-11-09     8.65 52203600
##  6 F      2018-11-12     8.75 36317200
##  7 F      2018-11-13     8.80 33098000
##  8 F      2018-11-14     8.80 46677600
##  9 F      2018-11-15     8.58 57170100
## 10 F      2018-11-16     8.34 54582500
## # ... with 492 more rows
```

```r
adjvolF$volstd <- scale(adjvolF$volume)
adjvolF$adjstd <- scale(adjvolF$adjusted)
adjvolF 
```

```
## # A tibble: 502 x 6
##    symbol date       adjusted   volume volstd[,1] adjstd[,1]
##    <chr>  <date>        <dbl>    <dbl>      <dbl>      <dbl>
##  1 F      2018-11-05     8.79 41274300   -0.485        0.641
##  2 F      2018-11-06     8.80 40928600   -0.496        0.648
##  3 F      2018-11-07     8.85 37347400   -0.613        0.687
##  4 F      2018-11-08     8.72 55810100   -0.00973      0.595
##  5 F      2018-11-09     8.65 52203600   -0.128        0.543
##  6 F      2018-11-12     8.75 36317200   -0.647        0.615
##  7 F      2018-11-13     8.80 33098000   -0.752        0.648
##  8 F      2018-11-14     8.80 46677600   -0.308        0.648
##  9 F      2018-11-15     8.58 57170100    0.0347       0.497
## 10 F      2018-11-16     8.34 54582500   -0.0498       0.327
## # ... with 492 more rows
```
…
```r
adjvolGM <- filter(AllMy_stockAdjVol, symbol == "GM")
adjvolGM 
```

```
## # A tibble: 502 x 4
##    symbol date       adjusted   volume
##    <chr>  <date>        <dbl>    <dbl>
##  1 GM     2018-11-05     34.0 11477100
##  2 GM     2018-11-06     34.2 11187700
##  3 GM     2018-11-07     34.6  9457800
##  4 GM     2018-11-08     34.3 10807900
##  5 GM     2018-11-09     33.5  9037500
##  6 GM     2018-11-12     33.5 10062100
##  7 GM     2018-11-13     33.7  8594000
##  8 GM     2018-11-14     33.1 10883400
##  9 GM     2018-11-15     33.4 17675600
## 10 GM     2018-11-16     33.5 11681500
## # ... with 492 more rows
```

```r
adjvolGM$volstd <- scale(adjvolGM$volume)
adjvolGM$adjstd <- scale(adjvolGM$adjusted)
adjvolGM 
```

```
## # A tibble: 502 x 6
##    symbol date       adjusted   volume volstd[,1] adjstd[,1]
##    <chr>  <date>        <dbl>    <dbl>      <dbl>      <dbl>
##  1 GM     2018-11-05     34.0 11477100    -0.0543     0.269 
##  2 GM     2018-11-06     34.2 11187700    -0.102      0.307 
##  3 GM     2018-11-07     34.6  9457800    -0.387      0.384 
##  4 GM     2018-11-08     34.3 10807900    -0.165      0.327 
##  5 GM     2018-11-09     33.5  9037500    -0.457      0.168 
##  6 GM     2018-11-12     33.5 10062100    -0.288      0.166 
##  7 GM     2018-11-13     33.7  8594000    -0.530      0.210 
##  8 GM     2018-11-14     33.1 10883400    -0.152      0.0816
##  9 GM     2018-11-15     33.4 17675600     0.968      0.140 
## 10 GM     2018-11-16     33.5 11681500    -0.0206     0.177 
## # ... with 492 more rows
```
…
```r
adjvolJCPNQ <- filter(AllMy_stockAdjVol, symbol == "JCPNQ")
adjvolJCPNQ 
```

```
## # A tibble: 240 x 4
##    symbol date       adjusted  volume
##    <chr>  <date>        <dbl>   <dbl>
##  1 JCPNQ  2019-11-20     1.11 8186600
##  2 JCPNQ  2019-11-21     1.08 8293900
##  3 JCPNQ  2019-11-22     1.1  6240100
##  4 JCPNQ  2019-11-25     1.15 8827900
##  5 JCPNQ  2019-11-26     1.17 7513900
##  6 JCPNQ  2019-11-27     1.11 7628100
##  7 JCPNQ  2019-11-29     1.13 2741300
##  8 JCPNQ  2019-12-02     1.1  6139400
##  9 JCPNQ  2019-12-03     1.13 3463700
## 10 JCPNQ  2019-12-04     1.14 5375300
## # ... with 230 more rows
```

```r
adjvolJCPNQ$volstd <- scale(adjvolJCPNQ$volume)
adjvolJCPNQ$adjstd <- scale(adjvolJCPNQ$adjusted)
adjvolJCPNQ 
```

```
## # A tibble: 240 x 6
##    symbol date       adjusted  volume volstd[,1] adjstd[,1]
##    <chr>  <date>        <dbl>   <dbl>      <dbl>      <dbl>
##  1 JCPNQ  2019-11-20     1.11 8186600     -0.243       1.94
##  2 JCPNQ  2019-11-21     1.08 8293900     -0.238       1.84
##  3 JCPNQ  2019-11-22     1.1  6240100     -0.337       1.91
##  4 JCPNQ  2019-11-25     1.15 8827900     -0.212       2.06
##  5 JCPNQ  2019-11-26     1.17 7513900     -0.275       2.13
##  6 JCPNQ  2019-11-27     1.11 7628100     -0.270       1.94
##  7 JCPNQ  2019-11-29     1.13 2741300     -0.507       2.00
##  8 JCPNQ  2019-12-02     1.1  6139400     -0.342       1.91
##  9 JCPNQ  2019-12-03     1.13 3463700     -0.472       2.00
## 10 JCPNQ  2019-12-04     1.14 5375300     -0.379       2.03
## # ... with 230 more rows
```
…
```r
adjvolKR <- filter(AllMy_stockAdjVol, symbol == "KR")
adjvolKR 
```

```
## # A tibble: 502 x 4
##    symbol date       adjusted  volume
##    <chr>  <date>        <dbl>   <dbl>
##  1 KR     2018-11-05     29.3 7014600
##  2 KR     2018-11-06     29.5 6082900
##  3 KR     2018-11-07     30.0 7791500
##  4 KR     2018-11-08     30.0 5644000
##  5 KR     2018-11-09     30.1 6935400
##  6 KR     2018-11-12     30.0 5927800
##  7 KR     2018-11-13     30.1 6806100
##  8 KR     2018-11-14     29.1 8510700
##  9 KR     2018-11-15     28.9 5861600
## 10 KR     2018-11-16     29.1 4530900
## # ... with 492 more rows
```

```r
adjvolKR$volstd <- scale(adjvolKR$volume)
adjvolKR$adjstd <- scale(adjvolKR$adjusted)
adjvolKR 
```

```
## # A tibble: 502 x 6
##    symbol date       adjusted  volume volstd[,1] adjstd[,1]
##    <chr>  <date>        <dbl>   <dbl>      <dbl>      <dbl>
##  1 KR     2018-11-05     29.3 7014600    -0.371       0.293
##  2 KR     2018-11-06     29.5 6082900    -0.554       0.343
##  3 KR     2018-11-07     30.0 7791500    -0.218       0.454
##  4 KR     2018-11-08     30.0 5644000    -0.640       0.461
##  5 KR     2018-11-09     30.1 6935400    -0.386       0.470
##  6 KR     2018-11-12     30.0 5927800    -0.584       0.465
##  7 KR     2018-11-13     30.1 6806100    -0.412       0.468
##  8 KR     2018-11-14     29.1 8510700    -0.0772      0.252
##  9 KR     2018-11-15     28.9 5861600    -0.597       0.193
## 10 KR     2018-11-16     29.1 4530900    -0.859       0.240
## # ... with 492 more rows
```
…
```r
adjvolWDC <- filter(AllMy_stockAdjVol, symbol == "WDC")
adjvolWDC 
```

```
## # A tibble: 502 x 4
##    symbol date       adjusted  volume
##    <chr>  <date>        <dbl>   <dbl>
##  1 WDC    2018-11-05     45.3 5951300
##  2 WDC    2018-11-06     45.8 3667700
##  3 WDC    2018-11-07     45.4 3976000
##  4 WDC    2018-11-08     44.5 3999000
##  5 WDC    2018-11-09     42.8 5726300
##  6 WDC    2018-11-12     40.7 5063300
##  7 WDC    2018-11-13     41.8 6311400
##  8 WDC    2018-11-14     42.2 4376800
##  9 WDC    2018-11-15     43.8 5128900
## 10 WDC    2018-11-16     43.6 3888000
## # ... with 492 more rows
```

```r
adjvolWDC$volstd <- scale(adjvolWDC$volume)
adjvolWDC$adjstd <- scale(adjvolWDC$adjusted)
adjvolWDC 
```

```
## # A tibble: 502 x 6
##    symbol date       adjusted  volume volstd[,1] adjstd[,1]
##    <chr>  <date>        <dbl>   <dbl>      <dbl>      <dbl>
##  1 WDC    2018-11-05     45.3 5951300    -0.0104     -0.180
##  2 WDC    2018-11-06     45.8 3667700    -0.699      -0.125
##  3 WDC    2018-11-07     45.4 3976000    -0.606      -0.163
##  4 WDC    2018-11-08     44.5 3999000    -0.599      -0.262
##  5 WDC    2018-11-09     42.8 5726300    -0.0783     -0.449
##  6 WDC    2018-11-12     40.7 5063300    -0.278      -0.682
##  7 WDC    2018-11-13     41.8 6311400     0.0982     -0.556
##  8 WDC    2018-11-14     42.2 4376800    -0.485      -0.519
##  9 WDC    2018-11-15     43.8 5128900    -0.258      -0.347
## 10 WDC    2018-11-16     43.6 3888000    -0.633      -0.360
## # ... with 492 more rows
```
…
```r
adjvolNKE <- filter(AllMy_stockAdjVol, symbol == "NKE")
adjvolNKE 
```

```
## # A tibble: 502 x 4
##    symbol date       adjusted  volume
##    <chr>  <date>        <dbl>   <dbl>
##  1 NKE    2018-11-05     75.9 7143300
##  2 NKE    2018-11-06     75.0 6424200
##  3 NKE    2018-11-07     76.4 5403900
##  4 NKE    2018-11-08     76.2 5425000
##  5 NKE    2018-11-09     74.8 4737600
##  6 NKE    2018-11-12     73.5 5204900
##  7 NKE    2018-11-13     73.6 4584600
##  8 NKE    2018-11-14     73.6 7984200
##  9 NKE    2018-11-15     72.8 7858300
## 10 NKE    2018-11-16     73.2 8064200
## # ... with 492 more rows
```

```r
adjvolNKE$volstd <- scale(adjvolNKE$volume)
adjvolNKE$adjstd <- scale(adjvolNKE$adjusted)
adjvolNKE 
```

```
## # A tibble: 502 x 6
##    symbol date       adjusted  volume volstd[,1] adjstd[,1]
##    <chr>  <date>        <dbl>   <dbl>      <dbl>      <dbl>
##  1 NKE    2018-11-05     75.9 7143300     0.0217      -1.09
##  2 NKE    2018-11-06     75.0 6424200    -0.171       -1.16
##  3 NKE    2018-11-07     76.4 5403900    -0.445       -1.06
##  4 NKE    2018-11-08     76.2 5425000    -0.439       -1.08
##  5 NKE    2018-11-09     74.8 4737600    -0.623       -1.18
##  6 NKE    2018-11-12     73.5 5204900    -0.498       -1.27
##  7 NKE    2018-11-13     73.6 4584600    -0.664       -1.26
##  8 NKE    2018-11-14     73.6 7984200     0.247       -1.26
##  9 NKE    2018-11-15     72.8 7858300     0.213       -1.32
## 10 NKE    2018-11-16     73.2 8064200     0.269       -1.29
## # ... with 492 more rows
```
…
```r
adjvolT <- filter(AllMy_stockAdjVol, symbol == "T")
adjvolT 
```

```
## # A tibble: 502 x 4
##    symbol date       adjusted   volume
##    <chr>  <date>        <dbl>    <dbl>
##  1 T      2018-11-05     27.0 27346500
##  2 T      2018-11-06     27.3 24310600
##  3 T      2018-11-07     27.4 30836300
##  4 T      2018-11-08     27.3 29547600
##  5 T      2018-11-09     27.0 39994700
##  6 T      2018-11-12     27.1 25935300
##  7 T      2018-11-13     26.7 25641000
##  8 T      2018-11-14     26.9 31293500
##  9 T      2018-11-15     26.5 38917400
## 10 T      2018-11-16     26.7 28929500
## # ... with 492 more rows
```

```r
adjvolT$volstd <- scale(adjvolT$volume)
adjvolT$adjstd <- scale(adjvolT$adjusted)
adjvolT 
```

```
## # A tibble: 502 x 6
##    symbol date       adjusted   volume volstd[,1] adjstd[,1]
##    <chr>  <date>        <dbl>    <dbl>      <dbl>      <dbl>
##  1 T      2018-11-05     27.0 27346500     -0.521     -1.02 
##  2 T      2018-11-06     27.3 24310600     -0.728     -0.936
##  3 T      2018-11-07     27.4 30836300     -0.283     -0.900
##  4 T      2018-11-08     27.3 29547600     -0.371     -0.916
##  5 T      2018-11-09     27.0 39994700      0.342     -1.01 
##  6 T      2018-11-12     27.1 25935300     -0.617     -0.983
##  7 T      2018-11-13     26.7 25641000     -0.637     -1.10 
##  8 T      2018-11-14     26.9 31293500     -0.252     -1.05 
##  9 T      2018-11-15     26.5 38917400      0.268     -1.15 
## 10 T      2018-11-16     26.7 28929500     -0.413     -1.11 
## # ... with 492 more rows
```
…
```r
adjvolWDAY <- filter(AllMy_stockAdjVol, symbol == "WDAY")
adjvolWDAY 
```

```
## # A tibble: 502 x 4
##    symbol date       adjusted  volume
##    <chr>  <date>        <dbl>   <dbl>
##  1 WDAY   2018-11-05     130. 1949200
##  2 WDAY   2018-11-06     135. 1707800
##  3 WDAY   2018-11-07     144. 2952900
##  4 WDAY   2018-11-08     146. 1629100
##  5 WDAY   2018-11-09     140. 1832600
##  6 WDAY   2018-11-12     133. 2601200
##  7 WDAY   2018-11-13     135. 1627900
##  8 WDAY   2018-11-14     132. 1743100
##  9 WDAY   2018-11-15     136. 1814800
## 10 WDAY   2018-11-16     134. 1360700
## # ... with 492 more rows
```

```r
adjvolWDAY$volstd <- scale(adjvolWDAY$volume)
adjvolWDAY$adjstd <- scale(adjvolWDAY$adjusted)
adjvolWDAY 
```

```
## # A tibble: 502 x 6
##    symbol date       adjusted  volume volstd[,1] adjstd[,1]
##    <chr>  <date>        <dbl>   <dbl>      <dbl>      <dbl>
##  1 WDAY   2018-11-05     130. 1949200     -0.100      -2.07
##  2 WDAY   2018-11-06     135. 1707800     -0.294      -1.88
##  3 WDAY   2018-11-07     144. 2952900      0.706      -1.50
##  4 WDAY   2018-11-08     146. 1629100     -0.358      -1.43
##  5 WDAY   2018-11-09     140. 1832600     -0.194      -1.68
##  6 WDAY   2018-11-12     133. 2601200      0.423      -1.96
##  7 WDAY   2018-11-13     135. 1627900     -0.359      -1.88
##  8 WDAY   2018-11-14     132. 1743100     -0.266      -1.98
##  9 WDAY   2018-11-15     136. 1814800     -0.208      -1.83
## 10 WDAY   2018-11-16     134. 1360700     -0.573      -1.91
## # ... with 492 more rows
```
…
```r
adjvolWFC <- filter(AllMy_stockAdjVol, symbol == "WFC")
adjvolWFC 
```

```
## # A tibble: 502 x 4
##    symbol date       adjusted   volume
##    <chr>  <date>        <dbl>    <dbl>
##  1 WFC    2018-11-05     49.2 18990000
##  2 WFC    2018-11-06     49.1 20696800
##  3 WFC    2018-11-07     49.1 20668500
##  4 WFC    2018-11-08     49.1 22429200
##  5 WFC    2018-11-09     49.0 18972200
##  6 WFC    2018-11-12     48.4 19003300
##  7 WFC    2018-11-13     48.7 28102000
##  8 WFC    2018-11-14     48.2 24788400
##  9 WFC    2018-11-15     48.8 23220100
## 10 WFC    2018-11-16     48.9 18872500
## # ... with 492 more rows
```

```r
adjvolWFC$volstd <- scale(adjvolWFC$volume)
adjvolWFC$adjstd <- scale(adjvolWFC$adjusted)
adjvolWFC 
```

```
## # A tibble: 502 x 6
##    symbol date       adjusted   volume volstd[,1] adjstd[,1]
##    <chr>  <date>        <dbl>    <dbl>      <dbl>      <dbl>
##  1 WFC    2018-11-05     49.2 18990000    -0.644       0.984
##  2 WFC    2018-11-06     49.1 20696800    -0.541       0.974
##  3 WFC    2018-11-07     49.1 20668500    -0.543       0.977
##  4 WFC    2018-11-08     49.1 22429200    -0.437       0.978
##  5 WFC    2018-11-09     49.0 18972200    -0.645       0.967
##  6 WFC    2018-11-12     48.4 19003300    -0.643       0.903
##  7 WFC    2018-11-13     48.7 28102000    -0.0939      0.939
##  8 WFC    2018-11-14     48.2 24788400    -0.294       0.885
##  9 WFC    2018-11-15     48.8 23220100    -0.389       0.947
## 10 WFC    2018-11-16     48.9 18872500    -0.651       0.958
## # ... with 492 more rows
```
…
```r
adjvolWMT <- filter(AllMy_stockAdjVol, symbol == "WMT")
adjvolWMT 
```

```
## # A tibble: 502 x 4
##    symbol date       adjusted   volume
##    <chr>  <date>        <dbl>    <dbl>
##  1 WMT    2018-11-05     99.0  7616800
##  2 WMT    2018-11-06     99.4  6368700
##  3 WMT    2018-11-07    100.   8672600
##  4 WMT    2018-11-08    101.   5961400
##  5 WMT    2018-11-09    102.   8450400
##  6 WMT    2018-11-12    100.   8943100
##  7 WMT    2018-11-13     99.1  7956700
##  8 WMT    2018-11-14     97.7 10481900
##  9 WMT    2018-11-15     95.8 16082600
## 10 WMT    2018-11-16     94.0 14235200
## # ... with 492 more rows
```

```r
adjvolWMT$volstd <- scale(adjvolWMT$volume)
adjvolWMT$adjstd <- scale(adjvolWMT$adjusted)
adjvolWMT 
```

```
## # A tibble: 502 x 6
##    symbol date       adjusted   volume volstd[,1] adjstd[,1]
##    <chr>  <date>        <dbl>    <dbl>      <dbl>      <dbl>
##  1 WMT    2018-11-05     99.0  7616800    -0.0234     -0.969
##  2 WMT    2018-11-06     99.4  6368700    -0.308      -0.942
##  3 WMT    2018-11-07    100.   8672600     0.217      -0.876
##  4 WMT    2018-11-08    101.   5961400    -0.400      -0.839
##  5 WMT    2018-11-09    102.   8450400     0.166      -0.795
##  6 WMT    2018-11-12    100.   8943100     0.279      -0.906
##  7 WMT    2018-11-13     99.1  7956700     0.0540     -0.967
##  8 WMT    2018-11-14     97.7 10481900     0.629      -1.06 
##  9 WMT    2018-11-15     95.8 16082600     1.90       -1.19 
## 10 WMT    2018-11-16     94.0 14235200     1.48       -1.31 
## # ... with 492 more rows
```
…
