12 Case Study: Building the Past
…
#Test Pike County Ohio    In USA Boundaries  county fp = 131, statefp = 39
PikeOhio <- filter(permitscsv, state == 39 & county == 131)
PikeOhio

## # A tibble: 91 x 8
##        X1 state StateAbbr county countyname  variable     year value
##     <dbl> <dbl> <chr>      <dbl> <chr>       <chr>       <dbl> <dbl>
##  1 221553    39 OH           131 Pike County All Permits  2010    75
##  2 221554    39 OH           131 Pike County All Permits  2009    80
##  3 221555    39 OH           131 Pike County All Permits  2008   111
##  4 221556    39 OH           131 Pike County All Permits  2007    59
##  5 221557    39 OH           131 Pike County All Permits  2006    76
##  6 221558    39 OH           131 Pike County All Permits  2005   155
##  7 221559    39 OH           131 Pike County All Permits  2004   233
##  8 221560    39 OH           131 Pike County All Permits  2003   204
##  9 221561    39 OH           131 Pike County All Permits  2002    35
## 10 221562    39 OH           131 Pike County All Permits  2001    22
## # ... with 81 more rows

##CONFIRM   (state and county in csv)  == (statefp and countyfp in USAboundaries)

unique(permitscsv$variable)  #has 6 types of permit aggregations:   "All Permits" "Single Family" "All Multifamily""2-Unit Multifamily""3 & 4-Unit Multifamily" "5+-Unit Multifamily"   

## [1] "All Permits"            "Single Family"          "All Multifamily"       
## [4] "2-Unit Multifamily"     "3 & 4-Unit Multifamily" "5+-Unit Multifamily"

#need to filter for only the "All Permit" data
sfpermits <- filter(permitscsv, variable == "Single Family")
sfpermits    #drops the total rows from 327422 to 87396

## # A tibble: 87,004 x 8
##       X1 state StateAbbr county countyname     variable       year value
##    <dbl> <dbl> <chr>      <dbl> <chr>          <chr>         <dbl> <dbl>
##  1    32     1 AL             1 Autauga County Single Family  2010   135
##  2    33     1 AL             1 Autauga County Single Family  2009   110
##  3    34     1 AL             1 Autauga County Single Family  2008   173
##  4    35     1 AL             1 Autauga County Single Family  2007   260
##  5    36     1 AL             1 Autauga County Single Family  2006   347
##  6    37     1 AL             1 Autauga County Single Family  2005   313
##  7    38     1 AL             1 Autauga County Single Family  2004   367
##  8    39     1 AL             1 Autauga County Single Family  2003   283
##  9    40     1 AL             1 Autauga County Single Family  2002   276
## 10    41     1 AL             1 Autauga County Single Family  2001   176
## # ... with 86,994 more rows
…
#Permits : Group by and Summarize by state by year
styr <- sfpermits %>%
  group_by(StateAbbr, year) %>%
  summarise(sumval = sum(value, na.rm = TRUE))

## `summarise()` regrouping output by 'StateAbbr' (override with `.groups` argument)

#Scale down the value by dividing by 1000
styr$sumvalk <- styr$sumval / 1000 

styr  # Sum of All Permits by state for each year 1980 thru 2010

## # A tibble: 1,580 x 4
## # Groups:   StateAbbr [51]
##    StateAbbr  year sumval sumvalk
##    <chr>     <dbl>  <dbl>   <dbl>
##  1 AK         1980   1337   1.34 
##  2 AK         1981   2619   2.62 
##  3 AK         1982   3944   3.94 
##  4 AK         1983   4380   4.38 
##  5 AK         1984   3501   3.50 
##  6 AK         1985   2234   2.23 
##  7 AK         1986    984   0.984
##  8 AK         1987    431   0.431
##  9 AK         1988    517   0.517
## 10 AK         1989    454   0.454
## # ... with 1,570 more rows
…
ggsave("geofacet woCATXFL.png") 

## Saving 7 x 5 in image

#Create a percent change variable.  (new - old) / old

styr <- mutate(styr, pctchg = (sumvalk - lag(sumvalk))/lag(sumvalk))
styr

## # A tibble: 1,580 x 5
## # Groups:   StateAbbr [51]
##    StateAbbr  year sumval sumvalk pctchg
##    <chr>     <dbl>  <dbl>   <dbl>  <dbl>
##  1 AK         1980   1337   1.34  NA    
##  2 AK         1981   2619   2.62   0.959
##  3 AK         1982   3944   3.94   0.506
##  4 AK         1983   4380   4.38   0.111
##  5 AK         1984   3501   3.50  -0.201
##  6 AK         1985   2234   2.23  -0.362
##  7 AK         1986    984   0.984 -0.560
##  8 AK         1987    431   0.431 -0.562
##  9 AK         1988    517   0.517  0.200
## 10 AK         1989    454   0.454 -0.122
## # ... with 1,570 more rows
…
###Across Your State" i.e., Missouri, assume by county

unique(permitscsv$variable)  #has 6 types of permit aggregations:   "All Permits" "Single Family" "All Multifamily""2-Unit Multifamily""3 & 4-Unit Multifamily" "5+-Unit Multifamily"   

## [1] "All Permits"            "Single Family"          "All Multifamily"       
## [4] "2-Unit Multifamily"     "3 & 4-Unit Multifamily" "5+-Unit Multifamily"

#need to filter for only the "All Permit" data
permitscsv

## # A tibble: 327,422 x 8
##       X1 state StateAbbr county countyname     variable     year value
##    <dbl> <dbl> <chr>      <dbl> <chr>          <chr>       <dbl> <dbl>
##  1     1     1 AL             1 Autauga County All Permits  2010   191
##  2     2     1 AL             1 Autauga County All Permits  2009   110
##  3     3     1 AL             1 Autauga County All Permits  2008   173
##  4     4     1 AL             1 Autauga County All Permits  2007   260
##  5     5     1 AL             1 Autauga County All Permits  2006   347
##  6     6     1 AL             1 Autauga County All Permits  2005   313
##  7     7     1 AL             1 Autauga County All Permits  2004   367
##  8     8     1 AL             1 Autauga County All Permits  2003   283
##  9     9     1 AL             1 Autauga County All Permits  2002   276
## 10    10     1 AL             1 Autauga County All Permits  2001   400
## # ... with 327,412 more rows

mosfpermits <- filter(permitscsv, variable == "Single Family" & StateAbbr == "MO")
mosfpermits    #drops the total rows from 327422 to 3048

## # A tibble: 3,048 x 8
##        X1 state StateAbbr county countyname   variable       year value
##     <dbl> <dbl> <chr>      <dbl> <chr>        <chr>         <dbl> <dbl>
##  1 157260    29 MO             1 Adair County Single Family  2010    17
##  2 157261    29 MO             1 Adair County Single Family  2009    18
##  3 157262    29 MO             1 Adair County Single Family  2008    26
##  4 157263    29 MO             1 Adair County Single Family  2007    33
##  5 157264    29 MO             1 Adair County Single Family  2006    27
##  6 157265    29 MO             1 Adair County Single Family  2005    41
##  7 157266    29 MO             1 Adair County Single Family  2004    28
##  8 157267    29 MO             1 Adair County Single Family  2003    21
##  9 157268    29 MO             1 Adair County Single Family  2002    16
## 10 157269    29 MO             1 Adair County Single Family  2001    33
## # ... with 3,038 more rows
…
mosfpermits

## # A tibble: 3,048 x 9
##        X1 state StateAbbr county countyname   variable       year value name 
##     <dbl> <dbl> <chr>      <dbl> <chr>        <chr>         <dbl> <dbl> <chr>
##  1 157260    29 MO             1 Adair County Single Family  2010    17 Adair
##  2 157261    29 MO             1 Adair County Single Family  2009    18 Adair
##  3 157262    29 MO             1 Adair County Single Family  2008    26 Adair
##  4 157263    29 MO             1 Adair County Single Family  2007    33 Adair
##  5 157264    29 MO             1 Adair County Single Family  2006    27 Adair
##  6 157265    29 MO             1 Adair County Single Family  2005    41 Adair
##  7 157266    29 MO             1 Adair County Single Family  2004    28 Adair
##  8 157267    29 MO             1 Adair County Single Family  2003    21 Adair
##  9 157268    29 MO             1 Adair County Single Family  2002    16 Adair
## 10 157269    29 MO             1 Adair County Single Family  2001    33 Adair
## # ... with 3,038 more rows
…
mocyyr

## # A tibble: 3,048 x 4
## # Groups:   countyname [112]
##    countyname    year sumval name 
##    <chr>        <dbl>  <dbl> <chr>
##  1 Adair County  1980     27 Adair
##  2 Adair County  1981     38 Adair
##  3 Adair County  1982     49 Adair
##  4 Adair County  1983     64 Adair
##  5 Adair County  1984     25 Adair
##  6 Adair County  1985      5 Adair
##  7 Adair County  1986     11 Adair
##  8 Adair County  1987      5 Adair
##  9 Adair County  1988     17 Adair
## 10 Adair County  1989     13 Adair
## # ... with 3,038 more rows
…
#Create a percent change variable
mocyyr2 <- mutate(mocyyr2, pctchg = (sumval - lag(sumval))/lag(sumval))
mocyyr2   #  Sum of All Permits by state for each year 1980 thru 2010

## # A tibble: 3,048 x 5
## # Groups:   countyname [112]
##    countyname    year sumval name  pctchg
##    <chr>        <dbl>  <dbl> <chr>  <dbl>
##  1 Adair County  1980     27 Adair NA    
##  2 Adair County  1981     38 Adair  0.407
##  3 Adair County  1982     49 Adair  0.289
##  4 Adair County  1983     64 Adair  0.306
##  5 Adair County  1984     25 Adair -0.609
##  6 Adair County  1985      5 Adair -0.8  
##  7 Adair County  1986     11 Adair  1.2  
##  8 Adair County  1987      5 Adair -0.545
##  9 Adair County  1988     17 Adair  2.4  
## 10 Adair County  1989     13 Adair -0.235
## # ... with 3,038 more rows
…
