…
```r
#Test Pike County Ohio    In USA Boundaries  county fp = 131, statefp = 39
PikeOhio <- filter(permitscsv, state == 39 & county == 131)
PikeOhio
```

```
## # A tibble: 91 x 8
##        X1 state StateAbbr county countyname  variable     year value
##     <dbl> <dbl> <chr>      <dbl> <chr>       <chr>       <dbl> <dbl>
##  1 221553    39 OH           131 Pike County All Permits  2010    75
##  2 221554    39 OH           131 Pike County All Permits  2009    80
##  3 221555    39 OH           131 Pike County All Permits  2008   111
##  4 221556    39 OH           131 Pike County All Permits  2007    59
##  5 221557    39 OH           131 Pike County All Permits  2006    76
##  6 221558    39 OH           131 Pike County All Permits  2005   155
##  7 221559    39 OH           131 Pike County All Permits  2004   233
##  8 221560    39 OH           131 Pike County All Permits  2003   204
##  9 221561    39 OH           131 Pike County All Permits  2002    35
## 10 221562    39 OH           131 Pike County All Permits  2001    22
## # ... with 81 more rows
```
…
```
## [1] "All Permits"            "Single Family"          "All Multifamily"       
## [4] "2-Unit Multifamily"     "3 & 4-Unit Multifamily" "5+-Unit Multifamily"
```

```r
#need to filter for only the "All Permit" data
allpermits <- filter(permitscsv, variable == "All Permits")
allpermits    #drops the total rows from 327422 to 87396
```

```
## # A tibble: 87,396 x 8
##       X1 state StateAbbr county countyname     variable     year value
##    <dbl> <dbl> <chr>      <dbl> <chr>          <chr>       <dbl> <dbl>
##  1     1     1 AL             1 Autauga County All Permits  2010   191
##  2     2     1 AL             1 Autauga County All Permits  2009   110
##  3     3     1 AL             1 Autauga County All Permits  2008   173
##  4     4     1 AL             1 Autauga County All Permits  2007   260
##  5     5     1 AL             1 Autauga County All Permits  2006   347
##  6     6     1 AL             1 Autauga County All Permits  2005   313
##  7     7     1 AL             1 Autauga County All Permits  2004   367
##  8     8     1 AL             1 Autauga County All Permits  2003   283
##  9     9     1 AL             1 Autauga County All Permits  2002   276
## 10    10     1 AL             1 Autauga County All Permits  2001   400
## # ... with 87,386 more rows
```
…
```
## `summarise()` regrouping output by 'StateAbbr' (override with `.groups` argument)
```

```r
#Scale down the value by dividing by 1000
styr$sumvalk <- styr$sumval / 1000 

styr  # Sum of All Permits by state for each year 1980 thru 2010
```

```
## # A tibble: 1,580 x 4
## # Groups:   StateAbbr [51]
##    StateAbbr  year sumval sumvalk
##    <chr>     <dbl>  <dbl>   <dbl>
##  1 AK         1980   1837   1.84 
##  2 AK         1981   3862   3.86 
##  3 AK         1982   7438   7.44 
##  4 AK         1983  10671  10.7  
##  5 AK         1984   6264   6.26 
##  6 AK         1985   4038   4.04 
##  7 AK         1986   1399   1.40 
##  8 AK         1987    763   0.763
##  9 AK         1988    838   0.838
## 10 AK         1989    645   0.645
## # ... with 1,570 more rows
```
…
