…
### View All-Combinations (Yates)  (All Variables except takeout year, hispanic, and age(replaced by agecat with four 25year-wide bins)



```r
gdfd3 <- mutate(gdfd2, agecat = ceiling(age/25))   #creates age categories for age <26 <51 <76 <101
gdfd3
```

```
## # A tibble: 100,798 x 12
##       id  year month intent police sex     age race  hispanic place education
##    <dbl> <dbl> <dbl> <chr>   <dbl> <chr> <dbl> <chr>    <dbl> <chr> <chr>    
##  1     1  2012     1 Suici~      0 M        34 Asia~      100 Home  BA+      
##  2     2  2012     1 Suici~      0 F        21 White      100 Stre~ Some col~
##  3     3  2012     1 Suici~      0 M        60 White      100 Othe~ BA+      
##  4     4  2012     2 Suici~      0 M        64 White      100 Home  BA+      
##  5     5  2012     2 Suici~      0 M        31 White      100 Othe~ HS/GED   
##  6     6  2012     2 Suici~      0 M        17 Nati~      100 Home  Less tha~
##  7     7  2012     2 Undet~      0 M        48 White      100 Home  HS/GED   
##  8     8  2012     3 Suici~      0 M        41 Nati~      100 Home  HS/GED   
##  9     9  2012     2 Accid~      0 M        50 White      100 Othe~ Some col~
## 10    10  2012     2 Suici~      0 M        NA Black      998 Home  <NA>     
## # ... with 100,788 more rows, and 1 more variable: agecat <dbl>
```

```r
gdfd4 <- select(gdfd3, police, month, intent, agecat, sex, race, education, place)  
gdfd4
```

```
## # A tibble: 100,798 x 8
##    police month intent     agecat sex   race               education  place     
##     <dbl> <dbl> <chr>       <dbl> <chr> <chr>              <chr>      <chr>     
##  1      0     1 Suicide         2 M     Asian/Pacific Isl~ BA+        Home      
##  2      0     1 Suicide         1 F     White              Some coll~ Street    
##  3      0     1 Suicide         3 M     White              BA+        Other spe~
##  4      0     2 Suicide         3 M     White              BA+        Home      
##  5      0     2 Suicide         2 M     White              HS/GED     Other spe~
##  6      0     2 Suicide         1 M     Native American/N~ Less than~ Home      
##  7      0     2 Undetermi~      2 M     White              HS/GED     Home      
##  8      0     3 Suicide         2 M     Native American/N~ HS/GED     Home      
##  9      0     2 Accidental      2 M     White              Some coll~ Other spe~
## 10      0     2 Suicide        NA M     Black              <NA>       Home      
## # ... with 100,788 more rows
```
…
```
## `summarise()` regrouping output by 'police', 'month', 'intent', 'agecat', 'sex', 'race', 'education' (override with `.groups` argument)
```

```r
yates    #has 10,835 rows (combinations various levels of the 8 variables)
```

```
## # A tibble: 10,835 x 9
## # Groups:   police, month, intent, agecat, sex, race, education [4,358]
##    police month intent   agecat sex   race           education  place      count
##     <dbl> <dbl> <chr>     <dbl> <chr> <chr>          <chr>      <chr>      <int>
##  1      0     1 Acciden~      1 F     Black          HS/GED     Other uns~     1
##  2      0     1 Acciden~      1 F     Black          Less than~ Home           2
##  3      0     1 Acciden~      1 F     Black          Less than~ Other uns~     1
##  4      0     1 Acciden~      1 F     Black          <NA>       Home           1
##  5      0     1 Acciden~      1 F     White          Less than~ Home           1
##  6      0     1 Acciden~      1 F     White          Some coll~ Home           1
##  7      0     1 Acciden~      1 M     Asian/Pacific~ HS/GED     Home           1
##  8      0     1 Acciden~      1 M     Asian/Pacific~ Some coll~ Other uns~     1
##  9      0     1 Acciden~      1 M     Black          HS/GED     Home           1
## 10      0     1 Acciden~      1 M     Black          HS/GED     Other uns~     3
## # ... with 10,825 more rows
```
…
