…
```r
cw    #looks good, all columns came over.
```

```
## # A tibble: 533 x 4
##    name          type     time                amount
##    <chr>         <chr>    <dttm>               <dbl>
##  1 SplashandDash Services 2016-05-13 20:27:00    1  
##  2 SplashandDash Services 2016-05-13 20:27:00    0  
##  3 SplashandDash Services 2016-05-16 19:31:00   23.6
##  4 SplashandDash Services 2016-05-16 17:09:00   18.9
##  5 SplashandDash Services 2016-05-16 17:47:00   23.6
##  6 SplashandDash Services 2016-05-16 17:50:00   23.6
##  7 SplashandDash Services 2016-05-16 21:23:00   18.9
##  8 SplashandDash Services 2016-05-16 21:31:00   14.2
##  9 SplashandDash Services 2016-05-16 21:33:00   47.2
## 10 SplashandDash Services 2016-05-16 21:36:00   47.2
## # ... with 523 more rows
```
…
```r
cwta <- select(cw, time, amount) 
cwta
```

```
## # A tibble: 533 x 2
##    time                amount
##    <dttm>               <dbl>
##  1 2016-05-13 20:27:00    1  
##  2 2016-05-13 20:27:00    0  
##  3 2016-05-16 19:31:00   23.6
##  4 2016-05-16 17:09:00   18.9
##  5 2016-05-16 17:47:00   23.6
##  6 2016-05-16 17:50:00   23.6
##  7 2016-05-16 21:23:00   18.9
##  8 2016-05-16 21:31:00   14.2
##  9 2016-05-16 21:33:00   47.2
## 10 2016-05-16 21:36:00   47.2
## # ... with 523 more rows
```
…
```r
cwtb <- cwta
cwtb
```

```
## # A tibble: 533 x 2
##    time                amount
##    <dttm>               <dbl>
##  1 2016-05-13 20:27:00    1  
##  2 2016-05-13 20:27:00    0  
##  3 2016-05-16 19:31:00   23.6
##  4 2016-05-16 17:09:00   18.9
##  5 2016-05-16 17:47:00   23.6
##  6 2016-05-16 17:50:00   23.6
##  7 2016-05-16 21:23:00   18.9
##  8 2016-05-16 21:31:00   14.2
##  9 2016-05-16 21:33:00   47.2
## 10 2016-05-16 21:36:00   47.2
## # ... with 523 more rows
```

```r
cwtb$time <- ymd_hms(cwtb$time, tz = "UTC") 
cwtb$timemtn <- with_tz(cwtb$time, tz = "America/Denver")  
cwtb   #now has Mountain time column
```

```
## # A tibble: 533 x 3
##    time                amount timemtn            
##    <dttm>               <dbl> <dttm>             
##  1 2016-05-13 20:27:00    1   2016-05-13 14:27:00
##  2 2016-05-13 20:27:00    0   2016-05-13 14:27:00
##  3 2016-05-16 19:31:00   23.6 2016-05-16 13:31:00
##  4 2016-05-16 17:09:00   18.9 2016-05-16 11:09:00
##  5 2016-05-16 17:47:00   23.6 2016-05-16 11:47:00
##  6 2016-05-16 17:50:00   23.6 2016-05-16 11:50:00
##  7 2016-05-16 21:23:00   18.9 2016-05-16 15:23:00
##  8 2016-05-16 21:31:00   14.2 2016-05-16 15:31:00
##  9 2016-05-16 21:33:00   47.2 2016-05-16 15:33:00
## 10 2016-05-16 21:36:00   47.2 2016-05-16 15:36:00
## # ... with 523 more rows
```

Create a new hourly grouping variable using ceiling_date() from library(lubridate).  Aggregate the point of sale data into hour sales totals


```r
cwtc <- cwtb
cwtc$timemtnhr <- ceiling_date(cwtb$timemtn, "hour")
cwtc
```

```
## # A tibble: 533 x 4
##    time                amount timemtn             timemtnhr          
##    <dttm>               <dbl> <dttm>              <dttm>             
##  1 2016-05-13 20:27:00    1   2016-05-13 14:27:00 2016-05-13 15:00:00
##  2 2016-05-13 20:27:00    0   2016-05-13 14:27:00 2016-05-13 15:00:00
##  3 2016-05-16 19:31:00   23.6 2016-05-16 13:31:00 2016-05-16 14:00:00
##  4 2016-05-16 17:09:00   18.9 2016-05-16 11:09:00 2016-05-16 12:00:00
##  5 2016-05-16 17:47:00   23.6 2016-05-16 11:47:00 2016-05-16 12:00:00
##  6 2016-05-16 17:50:00   23.6 2016-05-16 11:50:00 2016-05-16 12:00:00
##  7 2016-05-16 21:23:00   18.9 2016-05-16 15:23:00 2016-05-16 16:00:00
##  8 2016-05-16 21:31:00   14.2 2016-05-16 15:31:00 2016-05-16 16:00:00
##  9 2016-05-16 21:33:00   47.2 2016-05-16 15:33:00 2016-05-16 16:00:00
## 10 2016-05-16 21:36:00   47.2 2016-05-16 15:36:00 2016-05-16 16:00:00
## # ... with 523 more rows
```
…
```r
cwhrly <- group_by(cwtc, timemtnhr)
cwsalhrly <- summarise(cwhrly, salphr = sum(amount, na.rm = TRUE))
```

```
## `summarise()` ungrouping output (override with `.groups` argument)
```

```r
cwsalhrly  #It's here  use this to merge or join to tmpc
```

```
## # A tibble: 240 x 2
##    timemtnhr           salphr
##    <dttm>               <dbl>
##  1 2016-05-13 15:00:00    1  
##  2 2016-05-16 09:00:00   -1  
##  3 2016-05-16 12:00:00   66.0
##  4 2016-05-16 14:00:00   23.6
##  5 2016-05-16 16:00:00  127. 
##  6 2016-05-17 10:00:00    5  
##  7 2016-05-17 11:00:00   20  
##  8 2016-05-17 12:00:00   25  
##  9 2016-05-17 13:00:00   60  
## 10 2016-05-17 14:00:00  110  
## # ... with 230 more rows
```
…
```r
cwsalhrlyb <- cwsalhrly
cwsalhrlyb
```

```
## # A tibble: 240 x 2
##    timemtnhr           salphr
##    <dttm>               <dbl>
##  1 2016-05-13 15:00:00    1  
##  2 2016-05-16 09:00:00   -1  
##  3 2016-05-16 12:00:00   66.0
##  4 2016-05-16 14:00:00   23.6
##  5 2016-05-16 16:00:00  127. 
##  6 2016-05-17 10:00:00    5  
##  7 2016-05-17 11:00:00   20  
##  8 2016-05-17 12:00:00   25  
##  9 2016-05-17 13:00:00   60  
## 10 2016-05-17 14:00:00  110  
## # ... with 230 more rows
```

```r
cwsalhrlyb$hronly <- hour(cwsalhrlyb$timemtnhr) 
cwsalhrlyb
```

```
## # A tibble: 240 x 3
##    timemtnhr           salphr hronly
##    <dttm>               <dbl>  <int>
##  1 2016-05-13 15:00:00    1       15
##  2 2016-05-16 09:00:00   -1        9
##  3 2016-05-16 12:00:00   66.0     12
##  4 2016-05-16 14:00:00   23.6     14
##  5 2016-05-16 16:00:00  127.      16
##  6 2016-05-17 10:00:00    5       10
##  7 2016-05-17 11:00:00   20       11
##  8 2016-05-17 12:00:00   25       12
##  9 2016-05-17 13:00:00   60       13
## 10 2016-05-17 14:00:00  110       14
## # ... with 230 more rows
```
…
```r
max(cwtc$timemtnhr)
```

```
## [1] "2016-07-18 11:00:00 MDT"
```

```r
tmpa <- riem_measures(station = "RXE",  date_start  = "2016-05-13",  date_end  = "2016-07-18")
tmpa   #"valid" is the date variable (dttm).  It's in UTC.  tmpf is the temperature variable, it is a dbl
```

```
## # A tibble: 20,560 x 31
##    station valid                 lon   lat  tmpf  dwpf  relh  drct  sknt  p01i
##    <chr>   <dttm>              <dbl> <dbl> <dbl> <dbl> <dbl> <dbl> <dbl> <dbl>
##  1 RXE     2016-05-13 00:00:00 -112.  43.8    NA    NA    NA   220    14    NA
##  2 RXE     2016-05-13 00:05:00 -112.  43.8    NA    NA    NA   200    13    NA
##  3 RXE     2016-05-13 00:10:00 -112.  43.8    NA    NA    NA   200    12    NA
##  4 RXE     2016-05-13 00:15:00 -112.  43.8    NA    NA    NA   210    16    NA
##  5 RXE     2016-05-13 00:20:00 -112.  43.8    NA    NA    NA   200    14    NA
##  6 RXE     2016-05-13 00:25:00 -112.  43.8    NA    NA    NA   210    13    NA
##  7 RXE     2016-05-13 00:30:00 -112.  43.8    NA    NA    NA   220    12    NA
##  8 RXE     2016-05-13 00:35:00 -112.  43.8    NA    NA    NA   210    12    NA
##  9 RXE     2016-05-13 00:40:00 -112.  43.8    NA    NA    NA   200    14    NA
## 10 RXE     2016-05-13 00:45:00 -112.  43.8    NA    NA    NA   210    13    NA
## # ... with 20,550 more rows, and 21 more variables: alti <dbl>, mslp <dbl>,
## #   vsby <dbl>, gust <dbl>, skyc1 <chr>, skyc2 <chr>, skyc3 <chr>, skyc4 <lgl>,
## #   skyl1 <dbl>, skyl2 <dbl>, skyl3 <dbl>, skyl4 <lgl>, wxcodes <chr>,
## #   ice_accretion_1hr <lgl>, ice_accretion_3hr <lgl>, ice_accretion_6hr <lgl>,
## #   peak_wind_gust <dbl>, peak_wind_drct <dbl>, peak_wind_time <chr>,
## #   feel <dbl>, metar <chr>
```

```r
tmpa <- select(tmpa, valid, tmpf)
tmpa
```

```
## # A tibble: 20,560 x 2
##    valid                tmpf
##    <dttm>              <dbl>
##  1 2016-05-13 00:00:00    NA
##  2 2016-05-13 00:05:00    NA
##  3 2016-05-13 00:10:00    NA
##  4 2016-05-13 00:15:00    NA
##  5 2016-05-13 00:20:00    NA
##  6 2016-05-13 00:25:00    NA
##  7 2016-05-13 00:30:00    NA
##  8 2016-05-13 00:35:00    NA
##  9 2016-05-13 00:40:00    NA
## 10 2016-05-13 00:45:00    NA
## # ... with 20,550 more rows
```
…
Convert the times from UTC time to mountain time using the right function out of library(lubridate).


```r
tmpb <- tmpa
tmpb
```

```
## # A tibble: 1,658 x 2
##    valid                tmpf
##    <dttm>              <dbl>
##  1 2016-05-13 00:53:00  68  
##  2 2016-05-13 01:53:00  66.0
##  3 2016-05-13 02:53:00  63.0
##  4 2016-05-13 03:53:00  59  
##  5 2016-05-13 04:53:00  57.9
##  6 2016-05-13 05:53:00  55.0
##  7 2016-05-13 06:53:00  55.0
##  8 2016-05-13 07:53:00  48.0
##  9 2016-05-13 08:53:00  45.0
## 10 2016-05-13 09:53:00  46.0
## # ... with 1,648 more rows
```
…
Create a new hourly grouping variable using ceiling_date() from library(lubridate).  
Aggregate the TEMPERATURE data into average-for-that-day&hour


```r
tmpc <- tmpb
tmpc$timemtnhr <- ceiling_date(tmpb$timemtn, "hour")
tmpc
```

```
## # A tibble: 1,658 x 5
##    valid                tmpf time                timemtn            
##    <dttm>              <dbl> <dttm>              <dttm>             
##  1 2016-05-13 00:53:00  68   2016-05-13 00:53:00 2016-05-12 18:53:00
##  2 2016-05-13 01:53:00  66.0 2016-05-13 01:53:00 2016-05-12 19:53:00
##  3 2016-05-13 02:53:00  63.0 2016-05-13 02:53:00 2016-05-12 20:53:00
##  4 2016-05-13 03:53:00  59   2016-05-13 03:53:00 2016-05-12 21:53:00
##  5 2016-05-13 04:53:00  57.9 2016-05-13 04:53:00 2016-05-12 22:53:00
##  6 2016-05-13 05:53:00  55.0 2016-05-13 05:53:00 2016-05-12 23:53:00
##  7 2016-05-13 06:53:00  55.0 2016-05-13 06:53:00 2016-05-13 00:53:00
##  8 2016-05-13 07:53:00  48.0 2016-05-13 07:53:00 2016-05-13 01:53:00
##  9 2016-05-13 08:53:00  45.0 2016-05-13 08:53:00 2016-05-13 02:53:00
## 10 2016-05-13 09:53:00  46.0 2016-05-13 09:53:00 2016-05-13 03:53:00
## # ... with 1,648 more rows, and 1 more variable: timemtnhr <dttm>
```
```r
tmphrly <- group_by(tmpc, timemtnhr)
tmpavhr <- summarise(tmphrly, avhrtmp = mean(tmpf, na.rm = TRUE))
```

```
## `summarise()` ungrouping output (override with `.groups` argument)
```

```r
tmpavhr  #It's here  use this to merge or join to cwsalhrlyb
```

```
## # A tibble: 1,524 x 2
##    timemtnhr           avhrtmp
##    <dttm>                <dbl>
##  1 2016-05-12 19:00:00    68  
##  2 2016-05-12 20:00:00    66.0
##  3 2016-05-12 21:00:00    63.0
##  4 2016-05-12 22:00:00    59  
##  5 2016-05-12 23:00:00    57.9
##  6 2016-05-13 00:00:00    55.0
##  7 2016-05-13 01:00:00    55.0
##  8 2016-05-13 02:00:00    48.0
##  9 2016-05-13 03:00:00    45.0
## 10 2016-05-13 04:00:00    46.0
## # ... with 1,514 more rows
```
…
```r
tmpd <- tmpc
tmpd 
```

```
## # A tibble: 1,658 x 5
##    valid                tmpf time                timemtn            
##    <dttm>              <dbl> <dttm>              <dttm>             
##  1 2016-05-13 00:53:00  68   2016-05-13 00:53:00 2016-05-12 18:53:00
##  2 2016-05-13 01:53:00  66.0 2016-05-13 01:53:00 2016-05-12 19:53:00
##  3 2016-05-13 02:53:00  63.0 2016-05-13 02:53:00 2016-05-12 20:53:00
##  4 2016-05-13 03:53:00  59   2016-05-13 03:53:00 2016-05-12 21:53:00
##  5 2016-05-13 04:53:00  57.9 2016-05-13 04:53:00 2016-05-12 22:53:00
##  6 2016-05-13 05:53:00  55.0 2016-05-13 05:53:00 2016-05-12 23:53:00
##  7 2016-05-13 06:53:00  55.0 2016-05-13 06:53:00 2016-05-13 00:53:00
##  8 2016-05-13 07:53:00  48.0 2016-05-13 07:53:00 2016-05-13 01:53:00
##  9 2016-05-13 08:53:00  45.0 2016-05-13 08:53:00 2016-05-13 02:53:00
## 10 2016-05-13 09:53:00  46.0 2016-05-13 09:53:00 2016-05-13 03:53:00
## # ... with 1,648 more rows, and 1 more variable: timemtnhr <dttm>
```

```r
tmpd$hronly <- hour(tmpd$timemtnhr) 
tmpd
```

```
## # A tibble: 1,658 x 6
##    valid                tmpf time                timemtn            
##    <dttm>              <dbl> <dttm>              <dttm>             
##  1 2016-05-13 00:53:00  68   2016-05-13 00:53:00 2016-05-12 18:53:00
##  2 2016-05-13 01:53:00  66.0 2016-05-13 01:53:00 2016-05-12 19:53:00
##  3 2016-05-13 02:53:00  63.0 2016-05-13 02:53:00 2016-05-12 20:53:00
##  4 2016-05-13 03:53:00  59   2016-05-13 03:53:00 2016-05-12 21:53:00
##  5 2016-05-13 04:53:00  57.9 2016-05-13 04:53:00 2016-05-12 22:53:00
##  6 2016-05-13 05:53:00  55.0 2016-05-13 05:53:00 2016-05-12 23:53:00
##  7 2016-05-13 06:53:00  55.0 2016-05-13 06:53:00 2016-05-13 00:53:00
##  8 2016-05-13 07:53:00  48.0 2016-05-13 07:53:00 2016-05-13 01:53:00
##  9 2016-05-13 08:53:00  45.0 2016-05-13 08:53:00 2016-05-13 02:53:00
## 10 2016-05-13 09:53:00  46.0 2016-05-13 09:53:00 2016-05-13 03:53:00
## # ... with 1,648 more rows, and 2 more variables: timemtnhr <dttm>,
## #   hronly <int>
```
…
Now Join hourly sales totals to hourly average temps, by mountain-time-hour 


```r
timeandtemp <- left_join(cwsalhrlyb, tmpavhr, by = "timemtnhr")
timeandtemp
```

```
## # A tibble: 240 x 4
##    timemtnhr           salphr hronly avhrtmp
##    <dttm>               <dbl>  <int>   <dbl>
##  1 2016-05-13 15:00:00    1       15    73.9
##  2 2016-05-16 09:00:00   -1        9    45.5
##  3 2016-05-16 12:00:00   66.0     12    50  
##  4 2016-05-16 14:00:00   23.6     14    54.0
##  5 2016-05-16 16:00:00  127.      16    57.0
##  6 2016-05-17 10:00:00    5       10    53.1
##  7 2016-05-17 11:00:00   20       11    55.9
##  8 2016-05-17 12:00:00   25       12    60.1
##  9 2016-05-17 13:00:00   60       13    59  
## 10 2016-05-17 14:00:00  110       14    62.1
## # ... with 230 more rows
```
…
