…
```
## [1] "All Permits"            "Single Family"          "All Multifamily"       
## [4] "2-Unit Multifamily"     "3 & 4-Unit Multifamily" "5+-Unit Multifamily"
```

```r
#need to filter for only the "All Permit" data
sfpermits <- filter(permitscsv, variable == "Single Family")
sfpermits    #drops the total rows from 327422 to 87396
```

```
## # A tibble: 87,004 x 8
##       X1 state StateAbbr county countyname     variable       year value
##    <dbl> <dbl> <chr>      <dbl> <chr>          <chr>         <dbl> <dbl>
##  1    32     1 AL             1 Autauga County Single Family  2010   135
##  2    33     1 AL             1 Autauga County Single Family  2009   110
##  3    34     1 AL             1 Autauga County Single Family  2008   173
##  4    35     1 AL             1 Autauga County Single Family  2007   260
##  5    36     1 AL             1 Autauga County Single Family  2006   347
##  6    37     1 AL             1 Autauga County Single Family  2005   313
##  7    38     1 AL             1 Autauga County Single Family  2004   367
##  8    39     1 AL             1 Autauga County Single Family  2003   283
##  9    40     1 AL             1 Autauga County Single Family  2002   276
## 10    41     1 AL             1 Autauga County Single Family  2001   176
## # ... with 86,994 more rows
```
…
```
## `summarise()` regrouping output by 'StateAbbr' (override with `.groups` argument)
```

```r
#Scale down the value by dividing by 1000
styr$sumvalk <- styr$sumval / 1000 

styr  # Sum of All Permits by state for each year 1990 thru 2010
```

```
## # A tibble: 1,070 x 4
## # Groups:   StateAbbr [51]
##    StateAbbr  year sumval sumvalk
##    <chr>     <dbl>  <dbl>   <dbl>
##  1 AK         1990    689   0.689
##  2 AK         1991    956   0.956
##  3 AK         1992   1160   1.16 
##  4 AK         1993   1526   1.53 
##  5 AK         1994   1455   1.46 
##  6 AK         1995   1589   1.59 
##  7 AK         1996   1738   1.74 
##  8 AK         1997   1823   1.82 
##  9 AK         1998   1940   1.94 
## 10 AK         1999   1467   1.47 
## # ... with 1,060 more rows
```

```r
#Minimum Housing Permits in whichever year, per state.  Similar to Worst-In-Class
stmin <- styr %>%
  group_by(StateAbbr) %>%
  filter(row_number((sumval)) == 1)
stmin
```

```
## # A tibble: 51 x 4
## # Groups:   StateAbbr [51]
##    StateAbbr  year sumval sumvalk
##    <chr>     <dbl>  <dbl>   <dbl>
##  1 AK         2009    540   0.54 
##  2 AL         2010   8715   8.72 
##  3 AR         2009   4527   4.53 
##  4 AZ         2010  10752  10.8  
##  5 CA         2009  25525  25.5  
##  6 CO         2009   7261   7.26 
##  7 CT         2009   2442   2.44 
##  8 DC         1997     11   0.011
##  9 DE         2010   2673   2.67 
## 10 FL         2009  26633  26.6  
## # ... with 41 more rows
```

```r
stmin <- mutate(stmin,
                sfmin = sumvalk,
                yrmin = year)
stmin <-select(stmin,StateAbbr,yrmin,sfmin)
stmin
```

```
## # A tibble: 51 x 3
## # Groups:   StateAbbr [51]
##    StateAbbr yrmin  sfmin
##    <chr>     <dbl>  <dbl>
##  1 AK         2009  0.54 
##  2 AL         2010  8.72 
##  3 AR         2009  4.53 
##  4 AZ         2010 10.8  
##  5 CA         2009 25.5  
##  6 CO         2009  7.26 
##  7 CT         2009  2.44 
##  8 DC         1997  0.011
##  9 DE         2010  2.67 
## 10 FL         2009 26.6  
## # ... with 41 more rows
```

```r
#2010 Housing Permits, per state. 
st10 <- styr %>%
  group_by(StateAbbr) %>%
  filter(year == 2010)
st10
```

```
## # A tibble: 51 x 4
## # Groups:   StateAbbr [51]
##    StateAbbr  year sumval sumvalk
##    <chr>     <dbl>  <dbl>   <dbl>
##  1 AK         2010    689   0.689
##  2 AL         2010   8715   8.72 
##  3 AR         2010   4648   4.65 
##  4 AZ         2010  10752  10.8  
##  5 CA         2010  25693  25.7  
##  6 CO         2010   8790   8.79 
##  7 CT         2010   2632   2.63 
##  8 DC         2010    177   0.177
##  9 DE         2010   2673   2.67 
## 10 FL         2010  30040  30.0  
## # ... with 41 more rows
```

```r
st10 <- mutate(st10,
                sf10 = sumvalk,
                yr10 = year)
st10 <-select(st10,StateAbbr,yr10,sf10)
st10
```

```
## # A tibble: 51 x 3
## # Groups:   StateAbbr [51]
##    StateAbbr  yr10   sf10
##    <chr>     <dbl>  <dbl>
##  1 AK         2010  0.689
##  2 AL         2010  8.72 
##  3 AR         2010  4.65 
##  4 AZ         2010 10.8  
##  5 CA         2010 25.7  
##  6 CO         2010  8.79 
##  7 CT         2010  2.63 
##  8 DC         2010  0.177
##  9 DE         2010  2.67 
## 10 FL         2010 30.0  
## # ... with 41 more rows
```

```r
#Maximum Housing Permits in whichever year, per state.  Similar to Best-In-Class 
stmax <- styr %>%
  group_by(StateAbbr) %>%
  filter(row_number(desc(sumval)) == 1)
stmax
```

```
## # A tibble: 51 x 4
## # Groups:   StateAbbr [51]
##    StateAbbr  year sumval sumvalk
##    <chr>     <dbl>  <dbl>   <dbl>
##  1 AK         1998   1940   1.94 
##  2 AL         2005  24678  24.7  
##  3 AR         2005  13192  13.2  
##  4 AZ         2005  87457  87.5  
##  5 CA         2005 154703 155.   
##  6 CO         2004  40753  40.8  
##  7 CT         2004   9263   9.26 
##  8 DC         2007    576   0.576
##  9 DE         2004   7532   7.53 
## 10 FL         2005 209162 209.   
## # ... with 41 more rows
```

```r
stmax <- mutate(stmax,
       sfmax = sumvalk,
       yrmax = year)
stmax <-select(stmax,StateAbbr,yrmax,sfmax)
stmax
```

```
## # A tibble: 51 x 3
## # Groups:   StateAbbr [51]
##    StateAbbr yrmax   sfmax
##    <chr>     <dbl>   <dbl>
##  1 AK         1998   1.94 
##  2 AL         2005  24.7  
##  3 AR         2005  13.2  
##  4 AZ         2005  87.5  
##  5 CA         2005 155.   
##  6 CO         2004  40.8  
##  7 CT         2004   9.26 
##  8 DC         2007   0.576
##  9 DE         2004   7.53 
## 10 FL         2005 209.   
## # ... with 41 more rows
```

```r
#Join Min, Max, and 2010 by State
stmax10 <- left_join(stmax,st10, by = "StateAbbr")
stmax10
```

```
## # A tibble: 51 x 5
## # Groups:   StateAbbr [51]
##    StateAbbr yrmax   sfmax  yr10   sf10
##    <chr>     <dbl>   <dbl> <dbl>  <dbl>
##  1 AK         1998   1.94   2010  0.689
##  2 AL         2005  24.7    2010  8.72 
##  3 AR         2005  13.2    2010  4.65 
##  4 AZ         2005  87.5    2010 10.8  
##  5 CA         2005 155.     2010 25.7  
##  6 CO         2004  40.8    2010  8.79 
##  7 CT         2004   9.26   2010  2.63 
##  8 DC         2007   0.576  2010  0.177
##  9 DE         2004   7.53   2010  2.67 
## 10 FL         2005 209.     2010 30.0  
## # ... with 41 more rows
```

```r
stmax10min <- left_join(stmax10,stmin, by = "StateAbbr")
stmax10min
```

```
## # A tibble: 51 x 7
## # Groups:   StateAbbr [51]
##    StateAbbr yrmax   sfmax  yr10   sf10 yrmin  sfmin
##    <chr>     <dbl>   <dbl> <dbl>  <dbl> <dbl>  <dbl>
##  1 AK         1998   1.94   2010  0.689  2009  0.54 
##  2 AL         2005  24.7    2010  8.72   2010  8.72 
##  3 AR         2005  13.2    2010  4.65   2009  4.53 
##  4 AZ         2005  87.5    2010 10.8    2010 10.8  
##  5 CA         2005 155.     2010 25.7    2009 25.5  
##  6 CO         2004  40.8    2010  8.79   2009  7.26 
##  7 CT         2004   9.26   2010  2.63   2009  2.44 
##  8 DC         2007   0.576  2010  0.177  1997  0.011
##  9 DE         2004   7.53   2010  2.67   2010  2.67 
## 10 FL         2005 209.     2010 30.0    2009 26.6  
## # ... with 41 more rows
```

```r
#Create a Belowmax variable that shows LOSS, i.e.,  (Max - 2010) / Max
#Create a Above Min variable that shows REBOUND, i.e.,  (2010 - Min) / Min, which will be Zero, if 2010 is the worst year.
#view(stmax10min)

stmax10minab <- mutate(stmax10min,
                         belowmax = (sfmax - sf10) / sfmax,
                         abovemin = -(sfmin - sf10) / sfmin)
stmax10minab
```

```
## # A tibble: 51 x 9
## # Groups:   StateAbbr [51]
##    StateAbbr yrmax   sfmax  yr10   sf10 yrmin  sfmin belowmax abovemin
##    <chr>     <dbl>   <dbl> <dbl>  <dbl> <dbl>  <dbl>    <dbl>    <dbl>
##  1 AK         1998   1.94   2010  0.689  2009  0.54     0.645  0.276  
##  2 AL         2005  24.7    2010  8.72   2010  8.72     0.647  0      
##  3 AR         2005  13.2    2010  4.65   2009  4.53     0.648  0.0267 
##  4 AZ         2005  87.5    2010 10.8    2010 10.8      0.877  0      
##  5 CA         2005 155.     2010 25.7    2009 25.5      0.834  0.00658
##  6 CO         2004  40.8    2010  8.79   2009  7.26     0.784  0.211  
##  7 CT         2004   9.26   2010  2.63   2009  2.44     0.716  0.0778 
##  8 DC         2007   0.576  2010  0.177  1997  0.011    0.693 15.1    
##  9 DE         2004   7.53   2010  2.67   2010  2.67     0.645  0      
## 10 FL         2005 209.     2010 30.0    2009 26.6      0.856  0.128  
## # ... with 41 more rows
```
…
```r
getwd()
```

```
## [1] "E:/000 DTS 350 Data Visualization/DTS350-hollinbergert/DTS350TemplateMaster/Week_13/analysis"
```

```r
statesLatLng <- transmute(stateswabbr, StateAbbr = X1, stname = X2, Lat = X3, Long = X4)
statesLatLng
```

```
## # A tibble: 50 x 4
##    StateAbbr stname                Lat   Long
##    <chr>     <chr>               <dbl>  <dbl>
##  1 AL        Alabama, USA         32.3  -86.9
##  2 AK        Alaska, USA          66.2 -153. 
##  3 AZ        Arizona, USA         34.0 -111. 
##  4 AR        Arkansas, the US     34.8  -92.2
##  5 CA        California, the USA  36.8 -119. 
##  6 CO        Colorado, USA        39.1 -105. 
##  7 CT        Connecticut, the US  41.6  -72.7
##  8 DE        Delaware, the US     39    -75.5
##  9 FL        Florida, USA         28.0  -81.8
## 10 GA        Georgia, the USA     33.2  -83.4
## # ... with 40 more rows
```

```r
#Join to the Permit MaxMin data
statesmaxmin10abvblwlatlng <- left_join(statesLatLng,stmax10minab, by = "StateAbbr")
statesmaxmin10abvblwlatlng
```

```
## # A tibble: 50 x 12
##    StateAbbr stname   Lat   Long yrmax  sfmax  yr10   sf10 yrmin sfmin belowmax
##    <chr>     <chr>  <dbl>  <dbl> <dbl>  <dbl> <dbl>  <dbl> <dbl> <dbl>    <dbl>
##  1 AL        Alaba~  32.3  -86.9  2005  24.7   2010  8.72   2010  8.72    0.647
##  2 AK        Alask~  66.2 -153.   1998   1.94  2010  0.689  2009  0.54    0.645
##  3 AZ        Arizo~  34.0 -111.   2005  87.5   2010 10.8    2010 10.8     0.877
##  4 AR        Arkan~  34.8  -92.2  2005  13.2   2010  4.65   2009  4.53    0.648
##  5 CA        Calif~  36.8 -119.   2005 155.    2010 25.7    2009 25.5     0.834
##  6 CO        Color~  39.1 -105.   2004  40.8   2010  8.79   2009  7.26    0.784
##  7 CT        Conne~  41.6  -72.7  2004   9.26  2010  2.63   2009  2.44    0.716
##  8 DE        Delaw~  39    -75.5  2004   7.53  2010  2.67   2010  2.67    0.645
##  9 FL        Flori~  28.0  -81.8  2005 209.    2010 30.0    2009 26.6     0.856
## 10 GA        Georg~  33.2  -83.4  2005  94.5   2010 14.9    2009 14.8     0.843
## # ... with 40 more rows, and 1 more variable: abovemin <dbl>
```
…
```r
eqs5 <- mutate(eqs5,
                 labelmsg = (paste0("Magnitude  ", mag, "   Click for more info")),
                 popupmsg = (paste0(place, "   //   ","    Magnitude = ",mag, "   //   ", "   Date/Time = ", time ))
)
eqs5
```

```
## # A tibble: 124 x 25
##      seq time                  lat   lng depth   mag magType   nst   gap  dmin
##    <dbl> <dttm>              <dbl> <dbl> <dbl> <dbl> <chr>   <dbl> <dbl> <dbl>
##  1     1 2020-10-19 20:54:39  54.6 -160. 31.1    7.6 mww        NA    36 0.225
##  2     2 2020-10-19 21:05:57  54.4 -160. 22.7    5.7 mb         NA   135 0.393
##  3     3 2020-10-19 21:06:20  54.5 -160. 26.2    5.7 mb         NA   150 0.334
##  4     4 2020-10-19 21:14:14  54.3 -160. 16.8    5   mb         NA    93 0.49 
##  5     5 2020-10-19 21:22:28  54.4 -160. 22.6    5.2 mb         NA   127 0.502
##  6     6 2020-10-19 21:32:21  54.4 -160. 26.6    5.5 mb         NA   116 0.463
##  7     7 2020-10-19 21:34:38  54.5 -160. 27.1    5.1 mb         NA   172 0.376
##  8     8 2020-10-19 21:45:25  54.3 -160. 20.8    5.9 mww        NA    65 0.516
##  9     9 2020-10-20 04:07:05  54.3 -160.  8.52   5.6 mww        NA    42 0.571
## 10    10 2020-10-20 12:32:12  54.4 -160. 22      5.1 mww        NA    64 0.481
## # ... with 114 more rows, and 15 more variables: rms <dbl>, net <chr>,
## #   id <chr>, updated <dttm>, place <chr>, type <chr>, horizontalError <dbl>,
## #   depthError <dbl>, magError <dbl>, magNst <dbl>, status <chr>,
## #   locationSource <chr>, magSource <chr>, labelmsg <chr>, popupmsg <chr>
```
…
