…
```
## Warning: `as_data_frame()` is deprecated as of tibble 2.0.0.
## Please use `as_tibble()` instead.
## The signature and semantics have changed, see `?as_tibble`.
## This warning is displayed once every 8 hours.
## Call `lifecycle::last_warnings()` to see where this warning was generated.
```

```r
df
```

```
## # A tibble: 32 x 4
##    rowname              wt   mpg cyl  
##    <chr>             <dbl> <dbl> <fct>
##  1 Mazda RX4          2.62  21   6    
##  2 Mazda RX4 Wag      2.88  21   6    
##  3 Datsun 710         2.32  22.8 4    
##  4 Hornet 4 Drive     3.22  21.4 6    
##  5 Hornet Sportabout  3.44  18.7 8    
##  6 Valiant            3.46  18.1 6    
##  7 Duster 360         3.57  14.3 8    
##  8 Merc 240D          3.19  24.4 4    
##  9 Merc 230           3.15  22.8 4    
## 10 Merc 280           3.44  19.2 6    
## # ... with 22 more rows
```
…
