…
```r
#### and Bind it into My Portfolio, Friend's Portfolio, and All Portfolio
mystocks <- c("LOW","MCD","WMT") %>%
  tq_get(get = "stock.prices", 
                    from = "2019-10-01")
mystocks
```

```
## # A tibble: 828 x 8
##    symbol date        open  high   low close  volume adjusted
##    <chr>  <date>     <dbl> <dbl> <dbl> <dbl>   <dbl>    <dbl>
##  1 LOW    2019-10-01  110.  112.  109.  110. 3966100     107.
##  2 LOW    2019-10-02  109.  109.  106.  106. 5040700     104.
##  3 LOW    2019-10-03  106.  107.  105.  106. 5002800     104.
##  4 LOW    2019-10-04  107.  108.  106.  107. 4311800     105.
##  5 LOW    2019-10-07  108.  109.  107.  108. 3686800     106.
##  6 LOW    2019-10-08  107.  108.  106.  106. 3261700     104.
##  7 LOW    2019-10-09  107.  108.  106.  106. 3224000     104.
##  8 LOW    2019-10-10  106.  108.  106.  108. 3218500     106.
##  9 LOW    2019-10-11  110.  112.  109.  111. 4498500     108.
## 10 LOW    2019-10-14  110.  111.  110.  111. 2129900     108.
## # ... with 818 more rows
```

```r
frstocks <- c("HD","QSR","TGT") %>%
  tq_get(get = "stock.prices", 
         from = "2019-10-01")
frstocks   
```

```
## # A tibble: 828 x 8
##    symbol date        open  high   low close  volume adjusted
##    <chr>  <date>     <dbl> <dbl> <dbl> <dbl>   <dbl>    <dbl>
##  1 HD     2019-10-01  233.  235.  231.  231. 3335400     226.
##  2 HD     2019-10-02  231.  231.  224.  226. 4336100     220.
##  3 HD     2019-10-03  225   227.  222.  227. 2777700     221.
##  4 HD     2019-10-04  227.  229.  227.  228. 3163100     222.
##  5 HD     2019-10-07  228.  228.  226.  227. 2917600     221.
##  6 HD     2019-10-08  225.  229.  225.  227. 3438500     221.
##  7 HD     2019-10-09  228.  230.  227.  229. 2657600     223.
##  8 HD     2019-10-10  229.  232.  229.  232. 2781500     226.
##  9 HD     2019-10-11  234.  237.  234.  235. 3459200     229.
## 10 HD     2019-10-14  234.  235.  234.  234. 2183900     229.
## # ... with 818 more rows
```

```r
#BOTH HAVE 828 ROWS

#Bind my and fr together
allstocks <- bind_rows(mystocks, frstocks)
allstocks  
```

```
## # A tibble: 1,656 x 8
##    symbol date        open  high   low close  volume adjusted
##    <chr>  <date>     <dbl> <dbl> <dbl> <dbl>   <dbl>    <dbl>
##  1 LOW    2019-10-01  110.  112.  109.  110. 3966100     107.
##  2 LOW    2019-10-02  109.  109.  106.  106. 5040700     104.
##  3 LOW    2019-10-03  106.  107.  105.  106. 5002800     104.
##  4 LOW    2019-10-04  107.  108.  106.  107. 4311800     105.
##  5 LOW    2019-10-07  108.  109.  107.  108. 3686800     106.
##  6 LOW    2019-10-08  107.  108.  106.  106. 3261700     104.
##  7 LOW    2019-10-09  107.  108.  106.  106. 3224000     104.
##  8 LOW    2019-10-10  106.  108.  106.  108. 3218500     106.
##  9 LOW    2019-10-11  110.  112.  109.  111. 4498500     108.
## 10 LOW    2019-10-14  110.  111.  110.  111. 2129900     108.
## # ... with 1,646 more rows
```

```r
#1656 rows

allstocks <-arrange(allstocks, date)
allstocks
```

```
## # A tibble: 1,656 x 8
##    symbol date        open  high   low close  volume adjusted
##    <chr>  <date>     <dbl> <dbl> <dbl> <dbl>   <dbl>    <dbl>
##  1 LOW    2019-10-01 110.  112.  109.  110.  3966100    107. 
##  2 MCD    2019-10-01 211.  212.  208.  209.  4811900    204. 
##  3 WMT    2019-10-01 119.  119.  118.  118.  3729300    116. 
##  4 HD     2019-10-01 233.  235.  231.  231.  3335400    226. 
##  5 QSR    2019-10-01  71.3  71.8  70.5  70.8 1776300     68.2
##  6 TGT    2019-10-01 107.  108.  106.  106.  3557400    104. 
##  7 LOW    2019-10-02 109.  109.  106.  106.  5040700    104. 
##  8 MCD    2019-10-02 208.  208.  206.  206.  4171400    201. 
##  9 WMT    2019-10-02 117.  118.  116.  116.  5944500    114. 
## 10 HD     2019-10-02 231.  231.  224.  226.  4336100    220. 
## # ... with 1,646 more rows
```

```r
#add a daily returns columns (will be used to calculate daily earnings)
allstocksgrp <- group_by(allstocks,symbol)
allstocksgrp
```

```
## # A tibble: 1,656 x 8
## # Groups:   symbol [6]
##    symbol date        open  high   low close  volume adjusted
##    <chr>  <date>     <dbl> <dbl> <dbl> <dbl>   <dbl>    <dbl>
##  1 LOW    2019-10-01 110.  112.  109.  110.  3966100    107. 
##  2 MCD    2019-10-01 211.  212.  208.  209.  4811900    204. 
##  3 WMT    2019-10-01 119.  119.  118.  118.  3729300    116. 
##  4 HD     2019-10-01 233.  235.  231.  231.  3335400    226. 
##  5 QSR    2019-10-01  71.3  71.8  70.5  70.8 1776300     68.2
##  6 TGT    2019-10-01 107.  108.  106.  106.  3557400    104. 
##  7 LOW    2019-10-02 109.  109.  106.  106.  5040700    104. 
##  8 MCD    2019-10-02 208.  208.  206.  206.  4171400    201. 
##  9 WMT    2019-10-02 117.  118.  116.  116.  5944500    114. 
## 10 HD     2019-10-02 231.  231.  224.  226.  4336100    220. 
## # ... with 1,646 more rows
```

```r
allstocksgrp <- tq_mutate(allstocksgrp, adjusted, mutate_fun = dailyReturn)
allstocksgrp
```

```
## # A tibble: 1,656 x 9
## # Groups:   symbol [6]
##    symbol date        open  high   low close  volume adjusted daily.returns
##    <chr>  <date>     <dbl> <dbl> <dbl> <dbl>   <dbl>    <dbl>         <dbl>
##  1 LOW    2019-10-01  110.  112.  109.  110. 3966100     107.      0       
##  2 LOW    2019-10-02  109.  109.  106.  106. 5040700     104.     -0.0289  
##  3 LOW    2019-10-03  106.  107.  105.  106. 5002800     104.      0.000188
##  4 LOW    2019-10-04  107.  108.  106.  107. 4311800     105.      0.00987 
##  5 LOW    2019-10-07  108.  109.  107.  108. 3686800     106.      0.00754 
##  6 LOW    2019-10-08  107.  108.  106.  106. 3261700     104.     -0.0160  
##  7 LOW    2019-10-09  107.  108.  106.  106. 3224000     104.     -0.00188 
##  8 LOW    2019-10-10  106.  108.  106.  108. 3218500     106.      0.0178  
##  9 LOW    2019-10-11  110.  112.  109.  111. 4498500     108.      0.0242  
## 10 LOW    2019-10-14  110.  111.  110.  111. 2129900     108.     -0.00126 
## # ... with 1,646 more rows
```
…
```r
#Has these columns:  symbol bsln  shrs
#and only 6 rows  (the 6 symbols)
```

#### Join so that baseline price and shrs are populated/repeated for every row.


```r
allstkwbsl <- left_join(allstocksgrp,baseline, by = "symbol")
allstkwbsl
```

```
## # A tibble: 1,656 x 11
## # Groups:   symbol [6]
##    symbol date        open  high   low close volume adjusted daily.returns  bsln
##    <chr>  <date>     <dbl> <dbl> <dbl> <dbl>  <dbl>    <dbl>         <dbl> <dbl>
##  1 LOW    2019-10-01  110.  112.  109.  110. 3.97e6     107.      0         107.
##  2 LOW    2019-10-02  109.  109.  106.  106. 5.04e6     104.     -0.0289    107.
##  3 LOW    2019-10-03  106.  107.  105.  106. 5.00e6     104.      0.000188  107.
##  4 LOW    2019-10-04  107.  108.  106.  107. 4.31e6     105.      0.00987   107.
##  5 LOW    2019-10-07  108.  109.  107.  108. 3.69e6     106.      0.00754   107.
##  6 LOW    2019-10-08  107.  108.  106.  106. 3.26e6     104.     -0.0160    107.
##  7 LOW    2019-10-09  107.  108.  106.  106. 3.22e6     104.     -0.00188   107.
##  8 LOW    2019-10-10  106.  108.  106.  108. 3.22e6     106.      0.0178    107.
##  9 LOW    2019-10-11  110.  112.  109.  111. 4.50e6     108.      0.0242    107.
## 10 LOW    2019-10-14  110.  111.  110.  111. 2.13e6     108.     -0.00126   107.
## # ... with 1,646 more rows, and 1 more variable: shrs <dbl>
```
…
#### Add a VAL column = shrs x adjusted, 
#### Add an CUMEARN column = (adjusted - bsln) x shrs, 
#### Add a DLYEARN column = daily.return x shrs,


```r
alstkwbslearn <- mutate(allstkwbsl, 
                        val = shrs * adjusted, 
                        cumearn = (adjusted - bsln)*shrs, 
                        dlyearn = daily.returns*shrs)
alstkwbslearn
```

```
## # A tibble: 1,656 x 14
## # Groups:   symbol [6]
##    symbol date        open  high   low close volume adjusted daily.returns  bsln
##    <chr>  <date>     <dbl> <dbl> <dbl> <dbl>  <dbl>    <dbl>         <dbl> <dbl>
##  1 LOW    2019-10-01  110.  112.  109.  110. 3.97e6     107.      0         107.
##  2 LOW    2019-10-02  109.  109.  106.  106. 5.04e6     104.     -0.0289    107.
##  3 LOW    2019-10-03  106.  107.  105.  106. 5.00e6     104.      0.000188  107.
##  4 LOW    2019-10-04  107.  108.  106.  107. 4.31e6     105.      0.00987   107.
##  5 LOW    2019-10-07  108.  109.  107.  108. 3.69e6     106.      0.00754   107.
##  6 LOW    2019-10-08  107.  108.  106.  106. 3.26e6     104.     -0.0160    107.
##  7 LOW    2019-10-09  107.  108.  106.  106. 3.22e6     104.     -0.00188   107.
##  8 LOW    2019-10-10  106.  108.  106.  108. 3.22e6     106.      0.0178    107.
##  9 LOW    2019-10-11  110.  112.  109.  111. 4.50e6     108.      0.0242    107.
## 10 LOW    2019-10-14  110.  111.  110.  111. 2.13e6     108.     -0.00126   107.
## # ... with 1,646 more rows, and 4 more variables: shrs <dbl>, val <dbl>,
## #   cumearn <dbl>, dlyearn <dbl>
```
…
```r
#Bundle into My vs Friends Portfolios
#Make a variable for My or Friends, first create it = symbol, then mutate-case-when 
alstkwbslearn <- mutate(alstkwbslearn, who = symbol)
alstkwbslearn
```

```
## # A tibble: 1,656 x 15
## # Groups:   symbol [6]
##    symbol date        open  high   low close volume adjusted daily.returns  bsln
##    <chr>  <date>     <dbl> <dbl> <dbl> <dbl>  <dbl>    <dbl>         <dbl> <dbl>
##  1 LOW    2019-10-01  110.  112.  109.  110. 3.97e6     107.      0         107.
##  2 LOW    2019-10-02  109.  109.  106.  106. 5.04e6     104.     -0.0289    107.
##  3 LOW    2019-10-03  106.  107.  105.  106. 5.00e6     104.      0.000188  107.
##  4 LOW    2019-10-04  107.  108.  106.  107. 4.31e6     105.      0.00987   107.
##  5 LOW    2019-10-07  108.  109.  107.  108. 3.69e6     106.      0.00754   107.
##  6 LOW    2019-10-08  107.  108.  106.  106. 3.26e6     104.     -0.0160    107.
##  7 LOW    2019-10-09  107.  108.  106.  106. 3.22e6     104.     -0.00188   107.
##  8 LOW    2019-10-10  106.  108.  106.  108. 3.22e6     106.      0.0178    107.
##  9 LOW    2019-10-11  110.  112.  109.  111. 4.50e6     108.      0.0242    107.
## 10 LOW    2019-10-14  110.  111.  110.  111. 2.13e6     108.     -0.00126   107.
## # ... with 1,646 more rows, and 5 more variables: shrs <dbl>, val <dbl>,
## #   cumearn <dbl>, dlyearn <dbl>, who <chr>
```

```r
alstkwbslearn <- mutate(alstkwbslearn,who=case_when(
  who == "LOW" ~ "My",
  who == "WMT" ~ "My",
  who == "MCD" ~ "My",
  who == "HD" ~ "Fr",
  who == "TGT" ~ "Fr",
  who == "QSR" ~ "Fr"))
alstkwbslearn
```

```
## # A tibble: 1,656 x 15
## # Groups:   symbol [6]
##    symbol date        open  high   low close volume adjusted daily.returns  bsln
##    <chr>  <date>     <dbl> <dbl> <dbl> <dbl>  <dbl>    <dbl>         <dbl> <dbl>
##  1 LOW    2019-10-01  110.  112.  109.  110. 3.97e6     107.      0         107.
##  2 LOW    2019-10-02  109.  109.  106.  106. 5.04e6     104.     -0.0289    107.
##  3 LOW    2019-10-03  106.  107.  105.  106. 5.00e6     104.      0.000188  107.
##  4 LOW    2019-10-04  107.  108.  106.  107. 4.31e6     105.      0.00987   107.
##  5 LOW    2019-10-07  108.  109.  107.  108. 3.69e6     106.      0.00754   107.
##  6 LOW    2019-10-08  107.  108.  106.  106. 3.26e6     104.     -0.0160    107.
##  7 LOW    2019-10-09  107.  108.  106.  106. 3.22e6     104.     -0.00188   107.
##  8 LOW    2019-10-10  106.  108.  106.  108. 3.22e6     106.      0.0178    107.
##  9 LOW    2019-10-11  110.  112.  109.  111. 4.50e6     108.      0.0242    107.
## 10 LOW    2019-10-14  110.  111.  110.  111. 2.13e6     108.     -0.00126   107.
## # ... with 1,646 more rows, and 5 more variables: shrs <dbl>, val <dbl>,
## #   cumearn <dbl>, dlyearn <dbl>, who <chr>
```

```r
#Create a dailyReturn grouped by portfolio
alstkwbslearnbyport <- group_by(alstkwbslearn, date, who)  
alstkwbslearnbyport
```

```
## # A tibble: 1,656 x 15
## # Groups:   date, who [552]
##    symbol date        open  high   low close volume adjusted daily.returns  bsln
##    <chr>  <date>     <dbl> <dbl> <dbl> <dbl>  <dbl>    <dbl>         <dbl> <dbl>
##  1 LOW    2019-10-01  110.  112.  109.  110. 3.97e6     107.      0         107.
##  2 LOW    2019-10-02  109.  109.  106.  106. 5.04e6     104.     -0.0289    107.
##  3 LOW    2019-10-03  106.  107.  105.  106. 5.00e6     104.      0.000188  107.
##  4 LOW    2019-10-04  107.  108.  106.  107. 4.31e6     105.      0.00987   107.
##  5 LOW    2019-10-07  108.  109.  107.  108. 3.69e6     106.      0.00754   107.
##  6 LOW    2019-10-08  107.  108.  106.  106. 3.26e6     104.     -0.0160    107.
##  7 LOW    2019-10-09  107.  108.  106.  106. 3.22e6     104.     -0.00188   107.
##  8 LOW    2019-10-10  106.  108.  106.  108. 3.22e6     106.      0.0178    107.
##  9 LOW    2019-10-11  110.  112.  109.  111. 4.50e6     108.      0.0242    107.
## 10 LOW    2019-10-14  110.  111.  110.  111. 2.13e6     108.     -0.00126   107.
## # ... with 1,646 more rows, and 5 more variables: shrs <dbl>, val <dbl>,
## #   cumearn <dbl>, dlyearn <dbl>, who <chr>
```

```r
alstkwbslearndlyport <- summarise(alstkwbslearnbyport, portdlyearn = sum(dlyearn, na.rm = TRUE)) # Produce the daily earnings for each portfolio (My vs Fr)
```

```
## `summarise()` regrouping output by 'date' (override with `.groups` argument)
```

```r
alstkwbslearndlyport
```

```
## # A tibble: 552 x 3
## # Groups:   date [276]
##    date       who   portdlyearn
##    <date>     <chr>       <dbl>
##  1 2019-10-01 Fr         0     
##  2 2019-10-01 My         0     
##  3 2019-10-02 Fr        -0.0746
##  4 2019-10-02 My        -0.144 
##  5 2019-10-03 Fr         0.0934
##  6 2019-10-03 My         0.0268
##  7 2019-10-04 Fr         0.0683
##  8 2019-10-04 My         0.107 
##  9 2019-10-07 Fr        -0.0944
## 10 2019-10-07 My        -0.0232
## # ... with 542 more rows
```
…
```r
ggsave("Which Stock Helped Most.jpeg")
```

```
## Saving 7 x 5 in image
```

```r
alstkwbslearncumport <- group_by(alstkwbslearn, date, who)  
alstkwbslearncumport
```

```
## # A tibble: 1,656 x 15
## # Groups:   date, who [552]
##    symbol date        open  high   low close volume adjusted daily.returns  bsln
##    <chr>  <date>     <dbl> <dbl> <dbl> <dbl>  <dbl>    <dbl>         <dbl> <dbl>
##  1 LOW    2019-10-01  110.  112.  109.  110. 3.97e6     107.      0         107.
##  2 LOW    2019-10-02  109.  109.  106.  106. 5.04e6     104.     -0.0289    107.
##  3 LOW    2019-10-03  106.  107.  105.  106. 5.00e6     104.      0.000188  107.
##  4 LOW    2019-10-04  107.  108.  106.  107. 4.31e6     105.      0.00987   107.
##  5 LOW    2019-10-07  108.  109.  107.  108. 3.69e6     106.      0.00754   107.
##  6 LOW    2019-10-08  107.  108.  106.  106. 3.26e6     104.     -0.0160    107.
##  7 LOW    2019-10-09  107.  108.  106.  106. 3.22e6     104.     -0.00188   107.
##  8 LOW    2019-10-10  106.  108.  106.  108. 3.22e6     106.      0.0178    107.
##  9 LOW    2019-10-11  110.  112.  109.  111. 4.50e6     108.      0.0242    107.
## 10 LOW    2019-10-14  110.  111.  110.  111. 2.13e6     108.     -0.00126   107.
## # ... with 1,646 more rows, and 5 more variables: shrs <dbl>, val <dbl>,
## #   cumearn <dbl>, dlyearn <dbl>, who <chr>
```

```r
alstkwbslearncumport <- summarise(alstkwbslearncumport, portcumearn = sum(cumearn, na.rm = TRUE)) # Produce the sum for each portfolio (My vs Fr)
```

```
## `summarise()` regrouping output by 'date' (override with `.groups` argument)
```

```r
alstkwbslearncumport
```

```
## # A tibble: 552 x 3
## # Groups:   date [276]
##    date       who   portcumearn
##    <date>     <chr>       <dbl>
##  1 2019-10-01 Fr         0     
##  2 2019-10-01 My         0     
##  3 2019-10-02 Fr       -13.1   
##  4 2019-10-02 My       -17.4   
##  5 2019-10-03 Fr        -4.12  
##  6 2019-10-03 My       -12.7   
##  7 2019-10-04 Fr         3.74  
##  8 2019-10-04 My         0.0204
##  9 2019-10-07 Fr        -5.16  
## 10 2019-10-07 My        -2.74  
## # ... with 542 more rows
```
…
