…
```r
grades
```

```
## # A tibble: 689 x 17
##    `Studient ID` `Current Major` `CS   241` ...4  ...5  `CS   450` ...7  ...8 
##            <dbl> <chr>           <chr>      <chr> <chr> <chr>      <chr> <chr>
##  1            NA <NA>            Major at ~ Seme~ Fina~ Major at ~ Seme~ Fina~
##  2             1 Computer Scien~ <NA>       <NA>  <NA>  Computer ~ WI16  A    
##  3             2 Business Analy~ <NA>       <NA>  <NA>  <NA>       <NA>  <NA> 
##  4             3 Electrical Eng~ Electrica~ SP16  A     <NA>       <NA>  <NA> 
##  5             4 Computer Scien~ <NA>       <NA>  <NA>  Computer ~ WI17  B-   
##  6             5 Applied Mathem~ Applied M~ FA16  A-    Applied M~ WI17  A    
##  7             6 Psychology      <NA>       <NA>  <NA>  <NA>       <NA>  <NA> 
##  8             7 Software Engin~ <NA>       <NA>  <NA>  Software ~ WI17  B-   
##  9             8 Psychology      <NA>       <NA>  <NA>  <NA>       <NA>  <NA> 
## 10             9 Biochemistry    Electrica~ SP17  A-    <NA>       <NA>  <NA> 
## # ... with 679 more rows, and 9 more variables: `MATH 325` <chr>, ...10 <chr>,
## #   ...11 <chr>, `MATH 335` <chr>, ...13 <chr>, ...14 <chr>, `MATH 425` <chr>,
## #   ...16 <chr>, ...17 <chr>
```
…
```r
grades
```

```
## # A tibble: 688 x 17
##     ...1 ...2  ...3  ...4  ...5  ...6  ...7  ...8  ...9  ...10 ...11 ...12 ...13
##    <dbl> <chr> <chr> <chr> <chr> <chr> <chr> <chr> <chr> <chr> <chr> <chr> <chr>
##  1     1 Comp~ <NA>  <NA>  <NA>  Comp~ WI16  A     <NA>  <NA>  <NA>  <NA>  <NA> 
##  2     2 Busi~ <NA>  <NA>  <NA>  <NA>  <NA>  <NA>  Busi~ SP18  B+    Busi~ SP18 
##  3     3 Elec~ Elec~ SP16  A     <NA>  <NA>  <NA>  <NA>  <NA>  <NA>  <NA>  <NA> 
##  4     4 Comp~ <NA>  <NA>  <NA>  Comp~ WI17  B-    Comp~ WI17  A-    Comp~ FA17 
##  5     5 Appl~ Appl~ FA16  A-    Appl~ WI17  A     <NA>  <NA>  <NA>  <NA>  <NA> 
##  6     6 Psyc~ <NA>  <NA>  <NA>  <NA>  <NA>  <NA>  Psyc~ SP17  A-    Psyc~ FA17 
##  7     7 Soft~ <NA>  <NA>  <NA>  Soft~ WI17  B-    <NA>  <NA>  <NA>  <NA>  <NA> 
##  8     8 Psyc~ <NA>  <NA>  <NA>  <NA>  <NA>  <NA>  Psyc~ FA15  B-    <NA>  <NA> 
##  9     9 Bioc~ Elec~ SP17  A-    <NA>  <NA>  <NA>  <NA>  <NA>  <NA>  <NA>  <NA> 
## 10    10 Comp~ <NA>  <NA>  <NA>  Comp~ WI17  C     <NA>  <NA>  <NA>  <NA>  <NA> 
## # ... with 678 more rows, and 4 more variables: ...14 <chr>, ...15 <chr>,
## #   ...16 <chr>, ...17 <chr>
```

```r
grades1 <- select(grades,1:17)
grades1
```

```
## # A tibble: 688 x 17
##     ...1 ...2  ...3  ...4  ...5  ...6  ...7  ...8  ...9  ...10 ...11 ...12 ...13
##    <dbl> <chr> <chr> <chr> <chr> <chr> <chr> <chr> <chr> <chr> <chr> <chr> <chr>
##  1     1 Comp~ <NA>  <NA>  <NA>  Comp~ WI16  A     <NA>  <NA>  <NA>  <NA>  <NA> 
##  2     2 Busi~ <NA>  <NA>  <NA>  <NA>  <NA>  <NA>  Busi~ SP18  B+    Busi~ SP18 
##  3     3 Elec~ Elec~ SP16  A     <NA>  <NA>  <NA>  <NA>  <NA>  <NA>  <NA>  <NA> 
##  4     4 Comp~ <NA>  <NA>  <NA>  Comp~ WI17  B-    Comp~ WI17  A-    Comp~ FA17 
##  5     5 Appl~ Appl~ FA16  A-    Appl~ WI17  A     <NA>  <NA>  <NA>  <NA>  <NA> 
##  6     6 Psyc~ <NA>  <NA>  <NA>  <NA>  <NA>  <NA>  Psyc~ SP17  A-    Psyc~ FA17 
##  7     7 Soft~ <NA>  <NA>  <NA>  Soft~ WI17  B-    <NA>  <NA>  <NA>  <NA>  <NA> 
##  8     8 Psyc~ <NA>  <NA>  <NA>  <NA>  <NA>  <NA>  Psyc~ FA15  B-    <NA>  <NA> 
##  9     9 Bioc~ Elec~ SP17  A-    <NA>  <NA>  <NA>  <NA>  <NA>  <NA>  <NA>  <NA> 
## 10    10 Comp~ <NA>  <NA>  <NA>  Comp~ WI17  C     <NA>  <NA>  <NA>  <NA>  <NA> 
## # ... with 678 more rows, and 4 more variables: ...14 <chr>, ...15 <chr>,
## #   ...16 <chr>, ...17 <chr>
```

```r
grades1 <- add_column(grades, v = "CS241", .after = "...2")
grades1
```

```
## # A tibble: 688 x 18
##     ...1 ...2  v     ...3  ...4  ...5  ...6  ...7  ...8  ...9  ...10 ...11 ...12
##    <dbl> <chr> <chr> <chr> <chr> <chr> <chr> <chr> <chr> <chr> <chr> <chr> <chr>
##  1     1 Comp~ CS241 <NA>  <NA>  <NA>  Comp~ WI16  A     <NA>  <NA>  <NA>  <NA> 
##  2     2 Busi~ CS241 <NA>  <NA>  <NA>  <NA>  <NA>  <NA>  Busi~ SP18  B+    Busi~
##  3     3 Elec~ CS241 Elec~ SP16  A     <NA>  <NA>  <NA>  <NA>  <NA>  <NA>  <NA> 
##  4     4 Comp~ CS241 <NA>  <NA>  <NA>  Comp~ WI17  B-    Comp~ WI17  A-    Comp~
##  5     5 Appl~ CS241 Appl~ FA16  A-    Appl~ WI17  A     <NA>  <NA>  <NA>  <NA> 
##  6     6 Psyc~ CS241 <NA>  <NA>  <NA>  <NA>  <NA>  <NA>  Psyc~ SP17  A-    Psyc~
##  7     7 Soft~ CS241 <NA>  <NA>  <NA>  Soft~ WI17  B-    <NA>  <NA>  <NA>  <NA> 
##  8     8 Psyc~ CS241 <NA>  <NA>  <NA>  <NA>  <NA>  <NA>  Psyc~ FA15  B-    <NA> 
##  9     9 Bioc~ CS241 Elec~ SP17  A-    <NA>  <NA>  <NA>  <NA>  <NA>  <NA>  <NA> 
## 10    10 Comp~ CS241 <NA>  <NA>  <NA>  Comp~ WI17  C     <NA>  <NA>  <NA>  <NA> 
## # ... with 678 more rows, and 5 more variables: ...13 <chr>, ...14 <chr>,
## #   ...15 <chr>, ...16 <chr>, ...17 <chr>
```

```r
grades2 <- add_column(grades1, w = "CS450", .after = "...5")
grades2
```

```
## # A tibble: 688 x 19
##     ...1 ...2  v     ...3  ...4  ...5  w     ...6  ...7  ...8  ...9  ...10 ...11
##    <dbl> <chr> <chr> <chr> <chr> <chr> <chr> <chr> <chr> <chr> <chr> <chr> <chr>
##  1     1 Comp~ CS241 <NA>  <NA>  <NA>  CS450 Comp~ WI16  A     <NA>  <NA>  <NA> 
##  2     2 Busi~ CS241 <NA>  <NA>  <NA>  CS450 <NA>  <NA>  <NA>  Busi~ SP18  B+   
##  3     3 Elec~ CS241 Elec~ SP16  A     CS450 <NA>  <NA>  <NA>  <NA>  <NA>  <NA> 
##  4     4 Comp~ CS241 <NA>  <NA>  <NA>  CS450 Comp~ WI17  B-    Comp~ WI17  A-   
##  5     5 Appl~ CS241 Appl~ FA16  A-    CS450 Appl~ WI17  A     <NA>  <NA>  <NA> 
##  6     6 Psyc~ CS241 <NA>  <NA>  <NA>  CS450 <NA>  <NA>  <NA>  Psyc~ SP17  A-   
##  7     7 Soft~ CS241 <NA>  <NA>  <NA>  CS450 Soft~ WI17  B-    <NA>  <NA>  <NA> 
##  8     8 Psyc~ CS241 <NA>  <NA>  <NA>  CS450 <NA>  <NA>  <NA>  Psyc~ FA15  B-   
##  9     9 Bioc~ CS241 Elec~ SP17  A-    CS450 <NA>  <NA>  <NA>  <NA>  <NA>  <NA> 
## 10    10 Comp~ CS241 <NA>  <NA>  <NA>  CS450 Comp~ WI17  C     <NA>  <NA>  <NA> 
## # ... with 678 more rows, and 6 more variables: ...12 <chr>, ...13 <chr>,
## #   ...14 <chr>, ...15 <chr>, ...16 <chr>, ...17 <chr>
```

```r
grades3 <- add_column(grades2, x = "MATH325", .after = "...8")
grades3
```

```
## # A tibble: 688 x 20
##     ...1 ...2  v     ...3  ...4  ...5  w     ...6  ...7  ...8  x     ...9  ...10
##    <dbl> <chr> <chr> <chr> <chr> <chr> <chr> <chr> <chr> <chr> <chr> <chr> <chr>
##  1     1 Comp~ CS241 <NA>  <NA>  <NA>  CS450 Comp~ WI16  A     MATH~ <NA>  <NA> 
##  2     2 Busi~ CS241 <NA>  <NA>  <NA>  CS450 <NA>  <NA>  <NA>  MATH~ Busi~ SP18 
##  3     3 Elec~ CS241 Elec~ SP16  A     CS450 <NA>  <NA>  <NA>  MATH~ <NA>  <NA> 
##  4     4 Comp~ CS241 <NA>  <NA>  <NA>  CS450 Comp~ WI17  B-    MATH~ Comp~ WI17 
##  5     5 Appl~ CS241 Appl~ FA16  A-    CS450 Appl~ WI17  A     MATH~ <NA>  <NA> 
##  6     6 Psyc~ CS241 <NA>  <NA>  <NA>  CS450 <NA>  <NA>  <NA>  MATH~ Psyc~ SP17 
##  7     7 Soft~ CS241 <NA>  <NA>  <NA>  CS450 Soft~ WI17  B-    MATH~ <NA>  <NA> 
##  8     8 Psyc~ CS241 <NA>  <NA>  <NA>  CS450 <NA>  <NA>  <NA>  MATH~ Psyc~ FA15 
##  9     9 Bioc~ CS241 Elec~ SP17  A-    CS450 <NA>  <NA>  <NA>  MATH~ <NA>  <NA> 
## 10    10 Comp~ CS241 <NA>  <NA>  <NA>  CS450 Comp~ WI17  C     MATH~ <NA>  <NA> 
## # ... with 678 more rows, and 7 more variables: ...11 <chr>, ...12 <chr>,
## #   ...13 <chr>, ...14 <chr>, ...15 <chr>, ...16 <chr>, ...17 <chr>
```

```r
grades4 <- add_column(grades3, y = "MATH335", .after = "...11")
grades4
```

```
## # A tibble: 688 x 21
##     ...1 ...2  v     ...3  ...4  ...5  w     ...6  ...7  ...8  x     ...9  ...10
##    <dbl> <chr> <chr> <chr> <chr> <chr> <chr> <chr> <chr> <chr> <chr> <chr> <chr>
##  1     1 Comp~ CS241 <NA>  <NA>  <NA>  CS450 Comp~ WI16  A     MATH~ <NA>  <NA> 
##  2     2 Busi~ CS241 <NA>  <NA>  <NA>  CS450 <NA>  <NA>  <NA>  MATH~ Busi~ SP18 
##  3     3 Elec~ CS241 Elec~ SP16  A     CS450 <NA>  <NA>  <NA>  MATH~ <NA>  <NA> 
##  4     4 Comp~ CS241 <NA>  <NA>  <NA>  CS450 Comp~ WI17  B-    MATH~ Comp~ WI17 
##  5     5 Appl~ CS241 Appl~ FA16  A-    CS450 Appl~ WI17  A     MATH~ <NA>  <NA> 
##  6     6 Psyc~ CS241 <NA>  <NA>  <NA>  CS450 <NA>  <NA>  <NA>  MATH~ Psyc~ SP17 
##  7     7 Soft~ CS241 <NA>  <NA>  <NA>  CS450 Soft~ WI17  B-    MATH~ <NA>  <NA> 
##  8     8 Psyc~ CS241 <NA>  <NA>  <NA>  CS450 <NA>  <NA>  <NA>  MATH~ Psyc~ FA15 
##  9     9 Bioc~ CS241 Elec~ SP17  A-    CS450 <NA>  <NA>  <NA>  MATH~ <NA>  <NA> 
## 10    10 Comp~ CS241 <NA>  <NA>  <NA>  CS450 Comp~ WI17  C     MATH~ <NA>  <NA> 
## # ... with 678 more rows, and 8 more variables: ...11 <chr>, y <chr>,
## #   ...12 <chr>, ...13 <chr>, ...14 <chr>, ...15 <chr>, ...16 <chr>,
## #   ...17 <chr>
```

```r
grades5 <- add_column(grades4, z = "MATH425", .after = "...14")
grades5
```

```
## # A tibble: 688 x 22
##     ...1 ...2  v     ...3  ...4  ...5  w     ...6  ...7  ...8  x     ...9  ...10
##    <dbl> <chr> <chr> <chr> <chr> <chr> <chr> <chr> <chr> <chr> <chr> <chr> <chr>
##  1     1 Comp~ CS241 <NA>  <NA>  <NA>  CS450 Comp~ WI16  A     MATH~ <NA>  <NA> 
##  2     2 Busi~ CS241 <NA>  <NA>  <NA>  CS450 <NA>  <NA>  <NA>  MATH~ Busi~ SP18 
##  3     3 Elec~ CS241 Elec~ SP16  A     CS450 <NA>  <NA>  <NA>  MATH~ <NA>  <NA> 
##  4     4 Comp~ CS241 <NA>  <NA>  <NA>  CS450 Comp~ WI17  B-    MATH~ Comp~ WI17 
##  5     5 Appl~ CS241 Appl~ FA16  A-    CS450 Appl~ WI17  A     MATH~ <NA>  <NA> 
##  6     6 Psyc~ CS241 <NA>  <NA>  <NA>  CS450 <NA>  <NA>  <NA>  MATH~ Psyc~ SP17 
##  7     7 Soft~ CS241 <NA>  <NA>  <NA>  CS450 Soft~ WI17  B-    MATH~ <NA>  <NA> 
##  8     8 Psyc~ CS241 <NA>  <NA>  <NA>  CS450 <NA>  <NA>  <NA>  MATH~ Psyc~ FA15 
##  9     9 Bioc~ CS241 Elec~ SP17  A-    CS450 <NA>  <NA>  <NA>  MATH~ <NA>  <NA> 
## 10    10 Comp~ CS241 <NA>  <NA>  <NA>  CS450 Comp~ WI17  C     MATH~ <NA>  <NA> 
## # ... with 678 more rows, and 9 more variables: ...11 <chr>, y <chr>,
## #   ...12 <chr>, ...13 <chr>, ...14 <chr>, z <chr>, ...15 <chr>, ...16 <chr>,
## #   ...17 <chr>
```
…
```r
grades11 <- grades10 %>%
  pivot_longer(c(pnl1,pnl2,pnl3,pnl4,pnl5), names_to = "pnlnbr", values_to = "CMSF") 
grades11
```

```
## # A tibble: 3,440 x 4
##     ...1 ...2               pnlnbr CMSF                              
##    <dbl> <chr>              <chr>  <chr>                             
##  1     1 Computer Science   pnl1   CS241_NA_NA_NA                    
##  2     1 Computer Science   pnl2   CS450_Computer Science_WI16_A     
##  3     1 Computer Science   pnl3   MATH325_NA_NA_NA                  
##  4     1 Computer Science   pnl4   MATH335_NA_NA_NA                  
##  5     1 Computer Science   pnl5   MATH425_NA_NA_NA                  
##  6     2 Business Analytics pnl1   CS241_NA_NA_NA                    
##  7     2 Business Analytics pnl2   CS450_NA_NA_NA                    
##  8     2 Business Analytics pnl3   MATH325_Business Analytics_SP18_B+
##  9     2 Business Analytics pnl4   MATH335_Business Analytics_SP18_A 
## 10     2 Business Analytics pnl5   MATH425_NA_NA_NA                  
## # ... with 3,430 more rows
```

```r
grades12 <- grades11 %>%
  separate(CMSF, into = c("Course Number","Major at Begin of Term","Semester","Final Grade"), sep = "_")
grades12
```

```
## # A tibble: 3,440 x 7
##     ...1 ...2    pnlnbr `Course Number` `Major at Begin ~ Semester `Final Grade`
##    <dbl> <chr>   <chr>  <chr>           <chr>             <chr>    <chr>        
##  1     1 Comput~ pnl1   CS241           NA                NA       NA           
##  2     1 Comput~ pnl2   CS450           Computer Science  WI16     A            
##  3     1 Comput~ pnl3   MATH325         NA                NA       NA           
##  4     1 Comput~ pnl4   MATH335         NA                NA       NA           
##  5     1 Comput~ pnl5   MATH425         NA                NA       NA           
##  6     2 Busine~ pnl1   CS241           NA                NA       NA           
##  7     2 Busine~ pnl2   CS450           NA                NA       NA           
##  8     2 Busine~ pnl3   MATH325         Business Analyti~ SP18     B+           
##  9     2 Busine~ pnl4   MATH335         Business Analyti~ SP18     A            
## 10     2 Busine~ pnl5   MATH425         NA                NA       NA           
## # ... with 3,430 more rows
```
…
grades13 <- grades12 %>%
 complete("Course Number","Major at Begin of Term","Semester","Final Grade")
grades13
----



```r
grades13 <- grades12 %>%
  filter(`Final Grade` != "NA")
grades13
```

```
## # A tibble: 876 x 7
##     ...1 ...2     pnlnbr `Course Number` `Major at Begin~ Semester `Final Grade`
##    <dbl> <chr>    <chr>  <chr>           <chr>            <chr>    <chr>        
##  1     1 Compute~ pnl2   CS450           Computer Science WI16     A            
##  2     2 Busines~ pnl3   MATH325         Business Analyt~ SP18     B+           
##  3     2 Busines~ pnl4   MATH335         Business Analyt~ SP18     A            
##  4     3 Electri~ pnl1   CS241           Electrical Engi~ SP16     A            
##  5     4 Compute~ pnl2   CS450           Computer Science WI17     B-           
##  6     4 Compute~ pnl3   MATH325         Computer Science WI17     A-           
##  7     4 Compute~ pnl4   MATH335         Computer Science FA17     A            
##  8     4 Compute~ pnl5   MATH425         Computer Science WI18     B            
##  9     5 Applied~ pnl1   CS241           Applied Mathema~ FA16     A-           
## 10     5 Applied~ pnl2   CS450           Applied Mathema~ WI17     A            
## # ... with 866 more rows
```
…
