…
```r
write_csv(ac2,"ac2.csv")  #check in excel to be sure you got what you wanted.
```


### **Plot Overview Graphics and save the plots** Density for single variables, scatterplotMatrix to find intuitively-paired variables


```r
ac2
```

```
## # A tibble: 193 x 5
##    ctry               beer spirit  wine total
##    <chr>             <dbl>  <dbl> <dbl> <dbl>
##  1 Afghanistan           0      0     0   0  
##  2 Albania              89    132    54   4.9
##  3 Algeria              25      0    14   0.7
##  4 Andorra             245    138   312  12.4
##  5 Angola              217     57    45   5.9
##  6 Antigua & Barbuda   102    128    45   4.9
##  7 Argentina           193     25   221   8.3
##  8 Armenia              21    179    11   3.8
##  9 Australia           261     72   212  10.4
## 10 Austria             279     75   191   9.7
## # ... with 183 more rows
```
…
### **Save as a csv**
write_csv(bd2,"bd2.csv")  #check in excel to be sure you got what you wanted.  #'this is obviated by the manual column name changes

### **Plot Overview Graphics and save the plots** Density for single variables, scatterplotMatrix to find intuitively-paired variables


```r
bd2
```

```
## # A tibble: 51 x 8
##    State              Fatal Speeding Acohol NotDistracted NoPrev Premiums Losses
##    <chr>              <dbl>    <dbl>  <dbl>         <dbl>  <dbl>    <dbl>  <dbl>
##  1 Alabama             18.8       39     30            96     80     785.   145.
##  2 Alaska              18.1       41     25            90     94    1053.   134.
##  3 Arizona             18.6       35     28            84     96     899.   110.
##  4 Arkansas            22.4       18     26            94     95     827.   142.
##  5 California          12         35     28            91     89     878.   166.
##  6 Colorado            13.6       37     28            79     95     836.   140.
##  7 Connecticut         10.8       46     36            87     82    1069.   167.
##  8 Delaware            16.2       38     30            87     99    1138.   151.
##  9 District of Colum~   5.9       34     27           100    100    1274.   136.
## 10 Florida             17.9       21     29            92     94    1160.   144.
## # ... with 41 more rows
```
…
