…
fhnocmna$child_mort                 
Get rid of NA's in Continent  doesn't seem to work, might be the difference between NA and blank.


```r
fhcontnona <- fh
fhcontnona %>% drop_na("continent")   
```

```
## # A tibble: 34,776 x 17
##     year country continent health_exp_total health_exp_publ~ health_insurance
##    <int> <chr>   <chr>                <dbl>            <dbl>            <int>
##  1  1800 Afghan~ Asia                    NA               NA               NA
##  2  1801 Afghan~ Asia                    NA               NA               NA
##  3  1802 Afghan~ Asia                    NA               NA               NA
##  4  1803 Afghan~ Asia                    NA               NA               NA
##  5  1804 Afghan~ Asia                    NA               NA               NA
##  6  1805 Afghan~ Asia                    NA               NA               NA
##  7  1806 Afghan~ Asia                    NA               NA               NA
##  8  1807 Afghan~ Asia                    NA               NA               NA
##  9  1808 Afghan~ Asia                    NA               NA               NA
## 10  1809 Afghan~ Asia                    NA               NA               NA
## # ... with 34,766 more rows, and 11 more variables: nhs_exp <dbl>,
## #   health_exp_private <dbl>, health_insurance_govt <dbl>,
## #   health_insurance_private <dbl>, health_insurance_any <dbl>,
## #   health_exp_public_percent <dbl>, health_exp_oop_percent <dbl>,
## #   no_health_insurance <dbl>, gdp <dbl>, life_expectancy <dbl>,
## #   child_mort <dbl>
```
…
