…
```r
sal    #looks good, all columns came over.
```

```
## # A tibble: 15,656 x 4
##    Name       Type           Time                Amount
##    <chr>      <chr>          <dttm>               <dbl>
##  1 Tacontento Food(prepared) 2016-05-16 19:01:00    3  
##  2 Tacontento Food(prepared) 2016-05-16 19:01:00    1.5
##  3 Tacontento Food(prepared) 2016-05-16 19:04:00    3  
##  4 Tacontento Food(prepared) 2016-05-16 19:04:00    3  
##  5 Tacontento Food(prepared) 2016-05-16 19:04:00    1.5
##  6 Tacontento Food(prepared) 2016-05-16 19:04:00    1  
##  7 Tacontento Food(prepared) 2016-05-16 19:07:00    3  
##  8 Tacontento Food(prepared) 2016-05-16 19:07:00    3  
##  9 Tacontento Food(prepared) 2016-05-16 19:07:00    1.5
## 10 Tacontento Food(prepared) 2016-05-16 19:07:00    3  
## # ... with 15,646 more rows
```
…
```r
#MISSING DATA or OUTLIERS-- 
#View(sala)  #use this code line then # it out, filter for "Missing" in Name and/or Type columns 
#Note the bottom of the View windows says there are 15,656 total entries.
#Results:
#1Missing	Missing	2016-06-17 21:12:00	150.00
#2Missing	Missing	2016-04-20 19:01:00	-3.07
sala  #15,656 rows
```

```
## # A tibble: 15,656 x 4
##    Name       Type           Time                Amount
##    <chr>      <chr>          <dttm>               <dbl>
##  1 Tacontento Food(prepared) 2016-05-16 19:01:00    3  
##  2 Tacontento Food(prepared) 2016-05-16 19:01:00    1.5
##  3 Tacontento Food(prepared) 2016-05-16 19:04:00    3  
##  4 Tacontento Food(prepared) 2016-05-16 19:04:00    3  
##  5 Tacontento Food(prepared) 2016-05-16 19:04:00    1.5
##  6 Tacontento Food(prepared) 2016-05-16 19:04:00    1  
##  7 Tacontento Food(prepared) 2016-05-16 19:07:00    3  
##  8 Tacontento Food(prepared) 2016-05-16 19:07:00    3  
##  9 Tacontento Food(prepared) 2016-05-16 19:07:00    1.5
## 10 Tacontento Food(prepared) 2016-05-16 19:07:00    3  
## # ... with 15,646 more rows
```

```r
salb <- filter(sala, Name != "Missing")
salb   #15,654 rows, thus removed the 2 Missing Datas
```

```
## # A tibble: 15,654 x 4
##    Name       Type           Time                Amount
##    <chr>      <chr>          <dttm>               <dbl>
##  1 Tacontento Food(prepared) 2016-05-16 19:01:00    3  
##  2 Tacontento Food(prepared) 2016-05-16 19:01:00    1.5
##  3 Tacontento Food(prepared) 2016-05-16 19:04:00    3  
##  4 Tacontento Food(prepared) 2016-05-16 19:04:00    3  
##  5 Tacontento Food(prepared) 2016-05-16 19:04:00    1.5
##  6 Tacontento Food(prepared) 2016-05-16 19:04:00    1  
##  7 Tacontento Food(prepared) 2016-05-16 19:07:00    3  
##  8 Tacontento Food(prepared) 2016-05-16 19:07:00    3  
##  9 Tacontento Food(prepared) 2016-05-16 19:07:00    1.5
## 10 Tacontento Food(prepared) 2016-05-16 19:07:00    3  
## # ... with 15,644 more rows
```

```r
# Also a comeback from first preliminary plot1, which showed an outlier due to an extremely early date:
#find it using View's filter
# HotDiggity	Food(prepared)	2016-04-20 19:01:00	-87.67
salb  #15,654 rows 
```

```
## # A tibble: 15,654 x 4
##    Name       Type           Time                Amount
##    <chr>      <chr>          <dttm>               <dbl>
##  1 Tacontento Food(prepared) 2016-05-16 19:01:00    3  
##  2 Tacontento Food(prepared) 2016-05-16 19:01:00    1.5
##  3 Tacontento Food(prepared) 2016-05-16 19:04:00    3  
##  4 Tacontento Food(prepared) 2016-05-16 19:04:00    3  
##  5 Tacontento Food(prepared) 2016-05-16 19:04:00    1.5
##  6 Tacontento Food(prepared) 2016-05-16 19:04:00    1  
##  7 Tacontento Food(prepared) 2016-05-16 19:07:00    3  
##  8 Tacontento Food(prepared) 2016-05-16 19:07:00    3  
##  9 Tacontento Food(prepared) 2016-05-16 19:07:00    1.5
## 10 Tacontento Food(prepared) 2016-05-16 19:07:00    3  
## # ... with 15,644 more rows
```

```r
salc <- filter(salb, Amount != -87.67)   #couldn't get it to filter on Time == "2016-04-20 19:01:00"
salc  #15,653, thus removed the 1 outlier early date.
```

```
## # A tibble: 15,653 x 4
##    Name       Type           Time                Amount
##    <chr>      <chr>          <dttm>               <dbl>
##  1 Tacontento Food(prepared) 2016-05-16 19:01:00    3  
##  2 Tacontento Food(prepared) 2016-05-16 19:01:00    1.5
##  3 Tacontento Food(prepared) 2016-05-16 19:04:00    3  
##  4 Tacontento Food(prepared) 2016-05-16 19:04:00    3  
##  5 Tacontento Food(prepared) 2016-05-16 19:04:00    1.5
##  6 Tacontento Food(prepared) 2016-05-16 19:04:00    1  
##  7 Tacontento Food(prepared) 2016-05-16 19:07:00    3  
##  8 Tacontento Food(prepared) 2016-05-16 19:07:00    3  
##  9 Tacontento Food(prepared) 2016-05-16 19:07:00    1.5
## 10 Tacontento Food(prepared) 2016-05-16 19:07:00    3  
## # ... with 15,643 more rows
```

```r
#THis is a long-form datafram.  Similar to:
#View(economics_long)

#Rename variables for ease of typing
sald <- salc %>%
rename(nm = Name, ty = Type, time = Time, amount = Amount)
sald
```

```
## # A tibble: 15,653 x 4
##    nm         ty             time                amount
##    <chr>      <chr>          <dttm>               <dbl>
##  1 Tacontento Food(prepared) 2016-05-16 19:01:00    3  
##  2 Tacontento Food(prepared) 2016-05-16 19:01:00    1.5
##  3 Tacontento Food(prepared) 2016-05-16 19:04:00    3  
##  4 Tacontento Food(prepared) 2016-05-16 19:04:00    3  
##  5 Tacontento Food(prepared) 2016-05-16 19:04:00    1.5
##  6 Tacontento Food(prepared) 2016-05-16 19:04:00    1  
##  7 Tacontento Food(prepared) 2016-05-16 19:07:00    3  
##  8 Tacontento Food(prepared) 2016-05-16 19:07:00    3  
##  9 Tacontento Food(prepared) 2016-05-16 19:07:00    1.5
## 10 Tacontento Food(prepared) 2016-05-16 19:07:00    3  
## # ... with 15,643 more rows
```
…
```r
sale <- sald
sale$time <- ymd_hms(sale$time, tz = "UTC") 
sale$timemtn <- with_tz(sale$time, tz = "America/Denver")  
sale   #now has Mountain time column
```

```
## # A tibble: 15,653 x 5
##    nm         ty             time                amount timemtn            
##    <chr>      <chr>          <dttm>               <dbl> <dttm>             
##  1 Tacontento Food(prepared) 2016-05-16 19:01:00    3   2016-05-16 13:01:00
##  2 Tacontento Food(prepared) 2016-05-16 19:01:00    1.5 2016-05-16 13:01:00
##  3 Tacontento Food(prepared) 2016-05-16 19:04:00    3   2016-05-16 13:04:00
##  4 Tacontento Food(prepared) 2016-05-16 19:04:00    3   2016-05-16 13:04:00
##  5 Tacontento Food(prepared) 2016-05-16 19:04:00    1.5 2016-05-16 13:04:00
##  6 Tacontento Food(prepared) 2016-05-16 19:04:00    1   2016-05-16 13:04:00
##  7 Tacontento Food(prepared) 2016-05-16 19:07:00    3   2016-05-16 13:07:00
##  8 Tacontento Food(prepared) 2016-05-16 19:07:00    3   2016-05-16 13:07:00
##  9 Tacontento Food(prepared) 2016-05-16 19:07:00    1.5 2016-05-16 13:07:00
## 10 Tacontento Food(prepared) 2016-05-16 19:07:00    3   2016-05-16 13:07:00
## # ... with 15,643 more rows
```
…
Create a new hourly grouping variable using ceiling_date() from library(lubridate).  


```r
salj <- sale
salj$timemtnhr <- ceiling_date(salj$timemtn, "hour")
salj
```

```
## # A tibble: 15,653 x 6
##    nm    ty    time                amount timemtn            
##    <chr> <chr> <dttm>               <dbl> <dttm>             
##  1 Taco~ Food~ 2016-05-16 19:01:00    3   2016-05-16 13:01:00
##  2 Taco~ Food~ 2016-05-16 19:01:00    1.5 2016-05-16 13:01:00
##  3 Taco~ Food~ 2016-05-16 19:04:00    3   2016-05-16 13:04:00
##  4 Taco~ Food~ 2016-05-16 19:04:00    3   2016-05-16 13:04:00
##  5 Taco~ Food~ 2016-05-16 19:04:00    1.5 2016-05-16 13:04:00
##  6 Taco~ Food~ 2016-05-16 19:04:00    1   2016-05-16 13:04:00
##  7 Taco~ Food~ 2016-05-16 19:07:00    3   2016-05-16 13:07:00
##  8 Taco~ Food~ 2016-05-16 19:07:00    3   2016-05-16 13:07:00
##  9 Taco~ Food~ 2016-05-16 19:07:00    1.5 2016-05-16 13:07:00
## 10 Taco~ Food~ 2016-05-16 19:07:00    3   2016-05-16 13:07:00
## # ... with 15,643 more rows, and 1 more variable: timemtnhr <dttm>
```

Create a new daily grouping variable using ceiling_date() from library(lubridate).  


```r
salk <- salj
salk$timemtnday <- ceiling_date(salk$timemtn, "day")
salk
```

```
## # A tibble: 15,653 x 7
##    nm    ty    time                amount timemtn            
##    <chr> <chr> <dttm>               <dbl> <dttm>             
##  1 Taco~ Food~ 2016-05-16 19:01:00    3   2016-05-16 13:01:00
##  2 Taco~ Food~ 2016-05-16 19:01:00    1.5 2016-05-16 13:01:00
##  3 Taco~ Food~ 2016-05-16 19:04:00    3   2016-05-16 13:04:00
##  4 Taco~ Food~ 2016-05-16 19:04:00    3   2016-05-16 13:04:00
##  5 Taco~ Food~ 2016-05-16 19:04:00    1.5 2016-05-16 13:04:00
##  6 Taco~ Food~ 2016-05-16 19:04:00    1   2016-05-16 13:04:00
##  7 Taco~ Food~ 2016-05-16 19:07:00    3   2016-05-16 13:07:00
##  8 Taco~ Food~ 2016-05-16 19:07:00    3   2016-05-16 13:07:00
##  9 Taco~ Food~ 2016-05-16 19:07:00    1.5 2016-05-16 13:07:00
## 10 Taco~ Food~ 2016-05-16 19:07:00    3   2016-05-16 13:07:00
## # ... with 15,643 more rows, and 2 more variables: timemtnhr <dttm>,
## #   timemtnday <dttm>
```
…
```r
salhrly <- group_by(salk, nm, timemtnhr)
sumsalhrly <- summarise(salhrly, salphr = sum(amount, na.rm = TRUE))
```

```
## `summarise()` regrouping output by 'nm' (override with `.groups` argument)
```

```r
sumsalhrly  #It's here  use this to merge or join 
```

```
## # A tibble: 1,536 x 3
## # Groups:   nm [6]
##    nm      timemtnhr           salphr
##    <chr>   <dttm>               <dbl>
##  1 Frozone 2016-05-16 12:00:00   20  
##  2 Frozone 2016-05-16 13:00:00    1  
##  3 Frozone 2016-05-16 14:00:00   12  
##  4 Frozone 2016-05-16 15:00:00    7  
##  5 Frozone 2016-05-17 11:00:00   17  
##  6 Frozone 2016-05-17 12:00:00   17.5
##  7 Frozone 2016-05-17 13:00:00   20  
##  8 Frozone 2016-05-17 14:00:00   37.5
##  9 Frozone 2016-05-18 11:00:00   18.5
## 10 Frozone 2016-05-18 12:00:00   53  
## # ... with 1,526 more rows
```
…
```r
saldaly <- group_by(salk, nm, timemtnday)
sumsaldaly <- summarise(saldaly, salpday = sum(amount, na.rm = TRUE))
```

```
## `summarise()` regrouping output by 'nm' (override with `.groups` argument)
```

```r
sumsaldaly  #It's here  use this to merge or join 
```

```
## # A tibble: 286 x 3
## # Groups:   nm [6]
##    nm      timemtnday          salpday
##    <chr>   <dttm>                <dbl>
##  1 Frozone 2016-05-17 00:00:00   40   
##  2 Frozone 2016-05-18 00:00:00   92   
##  3 Frozone 2016-05-19 00:00:00  128   
##  4 Frozone 2016-05-20 00:00:00   49.5 
##  5 Frozone 2016-05-21 00:00:00  126   
##  6 Frozone 2016-05-22 00:00:00   20   
##  7 Frozone 2016-05-24 00:00:00  -11.9 
##  8 Frozone 2016-05-25 00:00:00   -3.28
##  9 Frozone 2016-05-26 00:00:00   -2.36
## 10 Frozone 2016-05-27 00:00:00   -5.18
## # ... with 276 more rows
```
…
```
## `geom_smooth()` using method = 'loess' and formula 'y ~ x'
```

TYPICAL DAY'S SALES  (hourly sales profile of a typical day)  
Pull out only the hour data, and graph by typical hour-of-the-day.  


```r
sumsalhrlyb <- sumsalhrly
sumsalhrlyb
```

```
## # A tibble: 1,536 x 3
## # Groups:   nm [6]
##    nm      timemtnhr           salphr
##    <chr>   <dttm>               <dbl>
##  1 Frozone 2016-05-16 12:00:00   20  
##  2 Frozone 2016-05-16 13:00:00    1  
##  3 Frozone 2016-05-16 14:00:00   12  
##  4 Frozone 2016-05-16 15:00:00    7  
##  5 Frozone 2016-05-17 11:00:00   17  
##  6 Frozone 2016-05-17 12:00:00   17.5
##  7 Frozone 2016-05-17 13:00:00   20  
##  8 Frozone 2016-05-17 14:00:00   37.5
##  9 Frozone 2016-05-18 11:00:00   18.5
## 10 Frozone 2016-05-18 12:00:00   53  
## # ... with 1,526 more rows
```
…
```
## `geom_smooth()` using method = 'loess' and formula 'y ~ x'
```

Look at data in a table


```r
salj
```

```
## # A tibble: 15,653 x 6
##    nm    ty    time                amount timemtn            
##    <chr> <chr> <dttm>               <dbl> <dttm>             
##  1 Taco~ Food~ 2016-05-16 19:01:00    3   2016-05-16 13:01:00
##  2 Taco~ Food~ 2016-05-16 19:01:00    1.5 2016-05-16 13:01:00
##  3 Taco~ Food~ 2016-05-16 19:04:00    3   2016-05-16 13:04:00
##  4 Taco~ Food~ 2016-05-16 19:04:00    3   2016-05-16 13:04:00
##  5 Taco~ Food~ 2016-05-16 19:04:00    1.5 2016-05-16 13:04:00
##  6 Taco~ Food~ 2016-05-16 19:04:00    1   2016-05-16 13:04:00
##  7 Taco~ Food~ 2016-05-16 19:07:00    3   2016-05-16 13:07:00
##  8 Taco~ Food~ 2016-05-16 19:07:00    3   2016-05-16 13:07:00
##  9 Taco~ Food~ 2016-05-16 19:07:00    1.5 2016-05-16 13:07:00
## 10 Taco~ Food~ 2016-05-16 19:07:00    3   2016-05-16 13:07:00
## # ... with 15,643 more rows, and 1 more variable: timemtnhr <dttm>
```

```r
salw <- salj
salw$timemtnyear <- ceiling_date(salw$timemtn, "year")
salw
```

```
## # A tibble: 15,653 x 7
##    nm    ty    time                amount timemtn            
##    <chr> <chr> <dttm>               <dbl> <dttm>             
##  1 Taco~ Food~ 2016-05-16 19:01:00    3   2016-05-16 13:01:00
##  2 Taco~ Food~ 2016-05-16 19:01:00    1.5 2016-05-16 13:01:00
##  3 Taco~ Food~ 2016-05-16 19:04:00    3   2016-05-16 13:04:00
##  4 Taco~ Food~ 2016-05-16 19:04:00    3   2016-05-16 13:04:00
##  5 Taco~ Food~ 2016-05-16 19:04:00    1.5 2016-05-16 13:04:00
##  6 Taco~ Food~ 2016-05-16 19:04:00    1   2016-05-16 13:04:00
##  7 Taco~ Food~ 2016-05-16 19:07:00    3   2016-05-16 13:07:00
##  8 Taco~ Food~ 2016-05-16 19:07:00    3   2016-05-16 13:07:00
##  9 Taco~ Food~ 2016-05-16 19:07:00    1.5 2016-05-16 13:07:00
## 10 Taco~ Food~ 2016-05-16 19:07:00    3   2016-05-16 13:07:00
## # ... with 15,643 more rows, and 2 more variables: timemtnhr <dttm>,
## #   timemtnyear <dttm>
```

```r
salwyrly <- group_by(salw, nm, ty)
salwyrly
```

```
## # A tibble: 15,653 x 7
## # Groups:   nm, ty [6]
##    nm    ty    time                amount timemtn            
##    <chr> <chr> <dttm>               <dbl> <dttm>             
##  1 Taco~ Food~ 2016-05-16 19:01:00    3   2016-05-16 13:01:00
##  2 Taco~ Food~ 2016-05-16 19:01:00    1.5 2016-05-16 13:01:00
##  3 Taco~ Food~ 2016-05-16 19:04:00    3   2016-05-16 13:04:00
##  4 Taco~ Food~ 2016-05-16 19:04:00    3   2016-05-16 13:04:00
##  5 Taco~ Food~ 2016-05-16 19:04:00    1.5 2016-05-16 13:04:00
##  6 Taco~ Food~ 2016-05-16 19:04:00    1   2016-05-16 13:04:00
##  7 Taco~ Food~ 2016-05-16 19:07:00    3   2016-05-16 13:07:00
##  8 Taco~ Food~ 2016-05-16 19:07:00    3   2016-05-16 13:07:00
##  9 Taco~ Food~ 2016-05-16 19:07:00    1.5 2016-05-16 13:07:00
## 10 Taco~ Food~ 2016-05-16 19:07:00    3   2016-05-16 13:07:00
## # ... with 15,643 more rows, and 2 more variables: timemtnhr <dttm>,
## #   timemtnyear <dttm>
```
…
