Task 5: InClass Examples
…
## Warning: 1000 parsing failures.
##  row col           expected     actual                                                                     file
## 1001   y 1/0/T/F/TRUE/FALSE 2015-01-16 'C:/Users/tomho/Documents/R/win-library/4.0/readr/extdata/challenge.csv'
## 1002   y 1/0/T/F/TRUE/FALSE 2018-05-18 'C:/Users/tomho/Documents/R/win-library/4.0/readr/extdata/challenge.csv'
## 1003   y 1/0/T/F/TRUE/FALSE 2015-09-05 'C:/Users/tomho/Documents/R/win-library/4.0/readr/extdata/challenge.csv'
## 1004   y 1/0/T/F/TRUE/FALSE 2012-11-28 'C:/Users/tomho/Documents/R/win-library/4.0/readr/extdata/challenge.csv'
## 1005   y 1/0/T/F/TRUE/FALSE 2020-01-13 'C:/Users/tomho/Documents/R/win-library/4.0/readr/extdata/challenge.csv'
## .... ... .................. .......... ........................................................................
## See problems(...) for more details.

Warning: 1000 parsing failures. See problems() for more details. There were some problems. Run the following:

problems(challenge)

## # A tibble: 1,000 x 5
##      row col   expected       actual   file                                     
##    <int> <chr> <chr>          <chr>    <chr>                                    
##  1  1001 y     1/0/T/F/TRUE/~ 2015-01~ 'C:/Users/tomho/Documents/R/win-library/~
##  2  1002 y     1/0/T/F/TRUE/~ 2018-05~ 'C:/Users/tomho/Documents/R/win-library/~
##  3  1003 y     1/0/T/F/TRUE/~ 2015-09~ 'C:/Users/tomho/Documents/R/win-library/~
##  4  1004 y     1/0/T/F/TRUE/~ 2012-11~ 'C:/Users/tomho/Documents/R/win-library/~
##  5  1005 y     1/0/T/F/TRUE/~ 2020-01~ 'C:/Users/tomho/Documents/R/win-library/~
##  6  1006 y     1/0/T/F/TRUE/~ 2016-04~ 'C:/Users/tomho/Documents/R/win-library/~
##  7  1007 y     1/0/T/F/TRUE/~ 2011-05~ 'C:/Users/tomho/Documents/R/win-library/~
##  8  1008 y     1/0/T/F/TRUE/~ 2020-07~ 'C:/Users/tomho/Documents/R/win-library/~
##  9  1009 y     1/0/T/F/TRUE/~ 2011-04~ 'C:/Users/tomho/Documents/R/win-library/~
## 10  1010 y     1/0/T/F/TRUE/~ 2010-05~ 'C:/Users/tomho/Documents/R/win-library/~
## # ... with 990 more rows
…
