Note from Chap 3,5,6,11
…
## Warning: 1000 parsing failures.
##  row col           expected     actual                                                                     file
## 1001   y 1/0/T/F/TRUE/FALSE 2015-01-16 'C:/Users/tomho/Documents/R/win-library/4.0/readr/extdata/challenge.csv'
## 1002   y 1/0/T/F/TRUE/FALSE 2018-05-18 'C:/Users/tomho/Documents/R/win-library/4.0/readr/extdata/challenge.csv'
## 1003   y 1/0/T/F/TRUE/FALSE 2015-09-05 'C:/Users/tomho/Documents/R/win-library/4.0/readr/extdata/challenge.csv'
## 1004   y 1/0/T/F/TRUE/FALSE 2012-11-28 'C:/Users/tomho/Documents/R/win-library/4.0/readr/extdata/challenge.csv'
## 1005   y 1/0/T/F/TRUE/FALSE 2020-01-13 'C:/Users/tomho/Documents/R/win-library/4.0/readr/extdata/challenge.csv'
## .... ... .................. .......... ........................................................................
## See problems(...) for more details.

(Note the use of readr_example() which finds the path to one of the files included with the package) There are two printed outputs: the column specification generated by looking at the first 1000 rows, and the first five parsing failures. Its always a good idea to explicitly pull out the problems(), so you can explore them in more depth:

problems(challenge)

## # A tibble: 1,000 x 5
##      row col   expected       actual   file                                     
##    <int> <chr> <chr>          <chr>    <chr>                                    
##  1  1001 y     1/0/T/F/TRUE/~ 2015-01~ 'C:/Users/tomho/Documents/R/win-library/~
##  2  1002 y     1/0/T/F/TRUE/~ 2018-05~ 'C:/Users/tomho/Documents/R/win-library/~
##  3  1003 y     1/0/T/F/TRUE/~ 2015-09~ 'C:/Users/tomho/Documents/R/win-library/~
##  4  1004 y     1/0/T/F/TRUE/~ 2012-11~ 'C:/Users/tomho/Documents/R/win-library/~
##  5  1005 y     1/0/T/F/TRUE/~ 2020-01~ 'C:/Users/tomho/Documents/R/win-library/~
##  6  1006 y     1/0/T/F/TRUE/~ 2016-04~ 'C:/Users/tomho/Documents/R/win-library/~
##  7  1007 y     1/0/T/F/TRUE/~ 2011-05~ 'C:/Users/tomho/Documents/R/win-library/~
##  8  1008 y     1/0/T/F/TRUE/~ 2020-07~ 'C:/Users/tomho/Documents/R/win-library/~
##  9  1009 y     1/0/T/F/TRUE/~ 2011-04~ 'C:/Users/tomho/Documents/R/win-library/~
## 10  1010 y     1/0/T/F/TRUE/~ 2010-05~ 'C:/Users/tomho/Documents/R/win-library/~
## # ... with 990 more rows
…
11.4.3 Other strategies

There are a few other general strategies to help you parse files:  In the previous example, we just got unlucky: if we look at just one more row than the default, we can correctly parse in one shot:

challenge2 <- read_csv(readr_example("challenge.csv"), guess_max = 1001)

## Parsed with column specification:
## cols(
##   x = col_double(),
##   y = col_date(format = "")
## )

challenge2

## # A tibble: 2,000 x 2
##        x y         
##    <dbl> <date>    
##  1   404 NA        
##  2  4172 NA        
##  3  3004 NA        
##  4   787 NA        
##  5    37 NA        
##  6  2332 NA        
##  7  2489 NA        
##  8  1449 NA        
##  9  3665 NA        
## 10  3863 NA        
## # ... with 1,990 more rows

 Sometimes its easier to diagnose problems if you just read in all the columns as character vectors:

challenge2 <- read_csv(readr_example("challenge.csv"), 
  col_types = cols(.default = col_character())
)

This is particularly useful in conjunction with type_convert(), which applies the parsing heuristics to the character columns in a data frame.

df

## # A tibble: 10,000 x 2
##          x       y
##      <dbl>   <dbl>
##  1 -0.138   0.857 
##  2  2.09    1.08  
##  3  0.252   1.24  
##  4 -0.426  -0.982 
##  5  0.239   0.888 
##  6 -0.0325  1.11  
##  7 -0.561  -0.0957
##  8  1.75    0.211 
##  9  0.0193 -0.0486
## 10  0.201   1.58  
## # ... with 9,990 more rows

Note the column types

type_convert(df)

## Parsed with column specification:
## cols()

## # A tibble: 10,000 x 2
##          x       y
##      <dbl>   <dbl>
##  1 -0.138   0.857 
##  2  2.09    1.08  
##  3  0.252   1.24  
##  4 -0.426  -0.982 
##  5  0.239   0.888 
##  6 -0.0325  1.11  
##  7 -0.561  -0.0957
##  8  1.75    0.211 
##  9  0.0193 -0.0486
## 10  0.201   1.58  
## # ... with 9,990 more rows

 If youre reading a very large file, you might want to set n_max to a smallish number like 10,000 or 100,000. That will accelerate your iterations while you eliminate common problems.  If youre having major parsing problems, sometimes its easier to just read into a character vector of lines with read_lines(), or even a character vector of length 1 with read_file(). Then you can use the string parsing skills youll learn later to parse more exotic formats.

11.5 Writing to a file

readr also comes with two useful functions for writing data back to disk: write_csv() and write_tsv(). Both functions increase the chances of the output file being read back in correctly by:  Always encoding strings in UTF-8.  Saving dates and date-times in ISO8601 format so they are easily parsed elsewhere. If you want to export a csv file to Excel, use write_excel_csv()  this writes a special character (a byte order mark) at the start of the file which tells Excel that youre using the UTF-8 encoding. The most important arguments are x (the data frame to save), and path (the location to save it). You can also specify how missing values are written with na, and if you want to append to an existing file.

write_csv(challenge, "challenge.csv")

Note that the type information is lost when you save to csv:

challenge

## # A tibble: 2,000 x 2
##        x y         
##    <dbl> <date>    
##  1   404 NA        
##  2  4172 NA        
##  3  3004 NA        
##  4   787 NA        
##  5    37 NA        
##  6  2332 NA        
##  7  2489 NA        
##  8  1449 NA        
##  9  3665 NA        
## 10  3863 NA        
## # ... with 1,990 more rows
…
## Warning: 1000 parsing failures.
##  row col           expected     actual              file
## 1001   y 1/0/T/F/TRUE/FALSE 2015-01-16 'challenge-2.csv'
## 1002   y 1/0/T/F/TRUE/FALSE 2018-05-18 'challenge-2.csv'
## 1003   y 1/0/T/F/TRUE/FALSE 2015-09-05 'challenge-2.csv'
## 1004   y 1/0/T/F/TRUE/FALSE 2012-11-28 'challenge-2.csv'
## 1005   y 1/0/T/F/TRUE/FALSE 2020-01-13 'challenge-2.csv'
## .... ... .................. .......... .................
## See problems(...) for more details.

## # A tibble: 2,000 x 2
##        x y    
##    <dbl> <lgl>
##  1   404 NA   
##  2  4172 NA   
##  3  3004 NA   
##  4   787 NA   
##  5    37 NA   
##  6  2332 NA   
##  7  2489 NA   
##  8  1449 NA   
##  9  3665 NA   
## 10  3863 NA   
## # ... with 1,990 more rows

This makes CSVs a little unreliable for caching interim resultsyou need to recreate the column specification every time you load in. There are two alternatives: 1. write_rds() and read_rds() are uniform wrappers around the base functions readRDS() and saveRDS(). These store data in Rs custom binary format called RDS:

write_rds(challenge, "challenge.rds")
read_rds("challenge.rds")

## # A tibble: 2,000 x 2
##        x y         
##    <dbl> <date>    
##  1   404 NA        
##  2  4172 NA        
##  3  3004 NA        
##  4   787 NA        
##  5    37 NA        
##  6  2332 NA        
##  7  2489 NA        
##  8  1449 NA        
##  9  3665 NA        
## 10  3863 NA        
## # ... with 1,990 more rows

The feather package implements a fast binary file format that can be shared across programming languages: INSTALL FEATHER first

library(feather)
write_feather(challenge, "challenge.feather")
read_feather("challenge.feather")

## # A tibble: 2,000 x 2
##        x y         
##    <dbl> <date>    
##  1   404 NA        
##  2  4172 NA        
##  3  3004 NA        
##  4   787 NA        
##  5    37 NA        
##  6  2332 NA        
##  7  2489 NA        
##  8  1449 NA        
##  9  3665 NA        
## 10  3863 NA        
## # ... with 1,990 more rows
…
