…
### [2 ] Create a new data frame called **df_inch** which converts all of the measurements given in centimeters to inches.


```r
df_orig
```

```
## # A tibble: 1,000 x 20
##    Country Region Gender Ageyears Handed Height Foot_Length Arm_Span
##    <chr>   <chr>  <chr>     <dbl> <chr>   <dbl>       <dbl>    <dbl>
##  1 CA      Ontar~ F             7 B         123          22      123
##  2 CA      Ontar~ F            13 L         157          25      157
##  3 CA      Newfo~ F            13 L         154          23      156
##  4 CA      Ontar~ F            18 R         164          27      164
##  5 CA      Quebec F            13 R         161          27      158
##  6 CA      Quebec F            13 R         162          25      162
##  7 CA      Ontar~ F            18 R         169          24      169
##  8 CA      Ontar~ F            13 L         158          25      170
##  9 CA      Ontar~ F            17 R         165          24      164
## 10 CA      Quebec F            15 R         168          25      162
## # ... with 990 more rows, and 12 more variables: Languages_spoken <dbl>,
## #   Travel_to_School <chr>, Travel_time_to_School <dbl>, Reaction_time <dbl>,
## #   Score_in_memory_game <dbl>, Favourite_physical_activity <chr>,
## #   Importance_reducing_pollution <dbl>, Importance_recycling_rubbish <dbl>,
## #   Importance_conserving_water <dbl>, Importance_saving_enery <dbl>,
## #   Importance_owning_computer <dbl>, Importance_Internet_access <dbl>
```
…
### [3 ] Create a new data frame called **df_environment** which selects scores > 750 : 
from the original data set only those rows that list **at least a 750 score** 
in **any** of the importance columns and has the rows ordered from **youngest to oldest**.


```r
df_environment <- filter(df_inch, Importance_reducing_pollution >= 750 | Importance_recycling_rubbish >=750 |	Importance_conserving_water	>=750 | Importance_saving_enery >=750 | Importance_owning_computer >=750 |	Importance_Internet_access >=750)
#Would be nice if I could filter ColName starts with import and CellValue >=750"
#View(df_environment)
df_environment <- (arrange(df_environment, Ageyears))
df_environment
```

```
## # A tibble: 821 x 20
##    Country Region Gender Ageyears Handed Height Foot_Length Arm_Span
##    <chr>   <chr>  <chr>     <dbl> <chr>   <dbl>       <dbl>    <dbl>
##  1 CA      Ontar~ F             5 R        63.8        9.06     62.2
##  2 CA      Quebec F             6 R        62.2        9.06     61.0
##  3 CA      Quebec M             6 R        57.9        9.45     53.5
##  4 OZ      Weste~ M             6 B        55.1        9.84     49.2
##  5 OZ      South~ M             6 R        67.3       11.0      67.7
##  6 OZ      Victo~ F             7 R        55.1        7.48     55.9
##  7 OZ      Victo~ F             7 R        56.3        9.06     55.9
##  8 OZ      New S~ F             7 R        60.6       10.2      56.7
##  9 OZ      New S~ M             7 R        57.9       10.2      59.8
## 10 OZ      Victo~ M             7 R        54.3        9.06     53.1
## # ... with 811 more rows, and 12 more variables: Languages_spoken <dbl>,
## #   Travel_to_School <chr>, Travel_time_to_School <dbl>, Reaction_time <dbl>,
## #   Score_in_memory_game <dbl>, Favourite_physical_activity <chr>,
## #   Importance_reducing_pollution <dbl>, Importance_recycling_rubbish <dbl>,
## #   Importance_conserving_water <dbl>, Importance_saving_enery <dbl>,
## #   Importance_owning_computer <dbl>, Importance_Internet_access <dbl>
```
…
### [6 ] Create a new data frame called **df_gender** which comes from the original data set and... 
gives for each country and each gender the average score of each of the importance columns.
the standard deviation for each importance column order the columns so it is 
country, gender, importance_reducing_pollution, mean_reducing_pollution, 
standdev_reducing_pollution, importance_recycling_rubbish, 
mean_recycling_rubbish, standdev_recycling_rubbish, etc.


```r
df_orig
```

```
## # A tibble: 1,000 x 20
##    Country Region Gender Ageyears Handed Height Foot_Length Arm_Span
##    <chr>   <chr>  <chr>     <dbl> <chr>   <dbl>       <dbl>    <dbl>
##  1 CA      Ontar~ F             7 B         123          22      123
##  2 CA      Ontar~ F            13 L         157          25      157
##  3 CA      Newfo~ F            13 L         154          23      156
##  4 CA      Ontar~ F            18 R         164          27      164
##  5 CA      Quebec F            13 R         161          27      158
##  6 CA      Quebec F            13 R         162          25      162
##  7 CA      Ontar~ F            18 R         169          24      169
##  8 CA      Ontar~ F            13 L         158          25      170
##  9 CA      Ontar~ F            17 R         165          24      164
## 10 CA      Quebec F            15 R         168          25      162
## # ... with 990 more rows, and 12 more variables: Languages_spoken <dbl>,
## #   Travel_to_School <chr>, Travel_time_to_School <dbl>, Reaction_time <dbl>,
## #   Score_in_memory_game <dbl>, Favourite_physical_activity <chr>,
## #   Importance_reducing_pollution <dbl>, Importance_recycling_rubbish <dbl>,
## #   Importance_conserving_water <dbl>, Importance_saving_enery <dbl>,
## #   Importance_owning_computer <dbl>, Importance_Internet_access <dbl>
```
…
```r
df_CountryGenderGrp <- group_by(df_CountryGenderImportances, Country, Gender)
df_CountryGenderGrp
```

```
## # A tibble: 1,000 x 8
## # Groups:   Country, Gender [10]
##    Country Gender Importance_redu~ Importance_recy~ Importance_cons~
##    <chr>   <chr>             <dbl>            <dbl>            <dbl>
##  1 CA      F                    32               37               80
##  2 CA      F                   144              144              107
##  3 CA      F                   332              481              797
##  4 CA      F                   123              160              193
##  5 CA      F                   674              572               11
##  6 CA      F                   856              765               86
##  7 CA      F                   476              481              230
##  8 CA      F                   829              182              128
##  9 CA      F                    32              118              588
## 10 CA      F                   668              471              615
## # ... with 990 more rows, and 3 more variables: Importance_saving_enery <dbl>,
## #   Importance_owning_computer <dbl>, Importance_Internet_access <dbl>
```
…
