…
```r
(filter(gapminder, country != "Kuwait"))    #1692 rows without not equal to Kuwait
```

```
## # A tibble: 1,692 x 6
##    country     continent  year lifeExp      pop gdpPercap
##    <fct>       <fct>     <int>   <dbl>    <int>     <dbl>
##  1 Afghanistan Asia       1952    28.8  8425333      779.
##  2 Afghanistan Asia       1957    30.3  9240934      821.
##  3 Afghanistan Asia       1962    32.0 10267083      853.
##  4 Afghanistan Asia       1967    34.0 11537966      836.
##  5 Afghanistan Asia       1972    36.1 13079460      740.
##  6 Afghanistan Asia       1977    38.4 14880372      786.
##  7 Afghanistan Asia       1982    39.9 12881816      978.
##  8 Afghanistan Asia       1987    40.8 13867957      852.
##  9 Afghanistan Asia       1992    41.7 16317921      649.
## 10 Afghanistan Asia       1997    41.8 22227415      635.
## # ... with 1,682 more rows
```
…
```
## `summarise()` regrouping output by 'year' (override with `.groups` argument)
```

```r
# this gets a warning:  "`summarise()` regrouping output by 'year' (override with `.groups` argument)
graph2data
```

```
## # A tibble: 60 x 4
## # Groups:   year [12]
##     year continent  wtgdp contsumpop
##    <int> <fct>      <dbl>      <dbl>
##  1  1952 Africa     1311.      2376.
##  2  1952 Americas   8528.      3452.
##  3  1952 Asia        794.     13952.
##  4  1952 Europe     6097.      4181.
##  5  1952 Oceania   10136.       107.
##  6  1957 Africa     1445.      2648.
##  7  1957 Americas   9098.      3870.
##  8  1957 Asia        983.     15626.
##  9  1957 Europe     7535.      4379.
## 10  1957 Oceania   11192.       119.
## # ... with 50 more rows
```
…
